# Blender v2.78 (sub 0) OBJ File: 'dog.blend'
# www.blender.org
o Cube.002
v -0.177520 0.318591 -0.041661
v -0.102398 0.338301 -0.087151
v 0.102346 0.273227 -0.087151
v 0.083214 0.235722 -0.041661
v -0.182319 0.547892 -0.041661
v 0.018082 0.553447 -0.041661
v 0.024393 0.522417 -0.087151
v -0.106167 0.518362 -0.087151
v -0.104282 0.428332 -0.110472
v -0.237006 0.392983 -0.087151
v -0.220224 0.452976 -0.101285
v 0.063370 0.397822 -0.110472
v 0.018082 0.553447 0.021269
v 0.024393 0.522417 0.066759
v 0.163932 0.559005 0.066759
v 0.161642 0.599649 0.021270
v -0.104283 0.428332 0.090080
v -0.102398 0.338301 0.066759
v 0.102346 0.273227 0.066759
v 0.063370 0.397822 0.090080
v 0.196900 0.640719 0.058880
v 0.203626 0.703709 0.021270
v 0.245298 0.309854 0.066759
v 0.204615 0.434429 0.090080
v 0.245298 0.309854 -0.087151
v 0.265258 0.282364 -0.041661
v 0.163932 0.559005 -0.087151
v 0.204615 0.434429 -0.110472
v 0.273874 0.551549 0.079813
v 0.350848 0.462378 0.066759
v 0.329997 0.565355 0.055592
v 0.276948 0.614690 0.064861
v 0.196900 0.640719 -0.079272
v 0.273874 0.551549 -0.100205
v 0.350848 0.462378 -0.087151
v 0.391110 0.476500 -0.041661
v 0.305563 0.670562 0.049400
v 0.238007 0.733388 0.033280
v 0.223899 0.664025 0.044862
v 0.329997 0.565355 -0.075983
v 0.359299 0.611245 -0.053672
v 0.223899 0.664025 -0.065253
v 0.276948 0.614690 -0.085252
v -0.220224 0.452976 0.080893
v -0.237006 0.392983 0.066759
v -0.270959 0.451516 -0.087151
v -0.177520 0.318591 0.021270
v -0.348939 0.388227 0.021269
v -0.203441 0.512969 -0.087151
v -0.306194 0.541024 -0.041661
v -0.348939 0.388227 -0.041661
v -0.392176 0.462766 -0.041661
v -0.203441 0.512969 0.066759
v -0.306194 0.541024 0.021269
v -0.392176 0.462766 0.021269
v -0.270959 0.451516 0.066759
v -0.309618 0.546039 -0.020684
v -0.395600 0.467781 -0.020684
v -0.366124 0.374350 -0.035390
v -0.403179 0.411684 -0.035390
v -0.106167 0.518362 0.066759
v -0.182319 0.547892 0.021269
v -0.182401 0.554986 -0.020684
v -0.177520 0.318591 -0.010196
v -0.348939 0.388227 -0.010196
v 0.203626 0.703709 -0.041661
v 0.238007 0.733388 -0.053672
v 0.203554 0.710004 0.000293
v 0.237935 0.739683 0.004296
v 0.391110 0.476500 0.021269
v 0.359299 0.611245 0.033280
v 0.399672 0.476599 -0.010196
v 0.378713 0.607800 -0.010196
v 0.305563 0.670562 -0.069792
v 0.371592 0.706903 -0.055151
v 0.393775 0.627951 -0.045404
v 0.265258 0.282364 0.021270
v 0.265258 0.282364 -0.010196
v 0.083214 0.235722 0.021270
v 0.083214 0.235722 -0.010196
v 0.161642 0.599649 -0.041661
v 0.158258 0.595539 0.000293
v 0.033120 0.553619 0.000293
v 0.033120 0.553619 -0.020684
v -0.373662 0.281575 -0.036419
v -0.430005 0.290124 -0.036419
v -0.414199 0.411558 -0.018594
v -0.366124 0.374350 0.014998
v -0.356022 0.374466 -0.001798
v -0.403179 0.411684 0.014998
v -0.373662 0.281575 0.016027
v -0.430005 0.290124 0.016027
v -0.425361 0.150682 0.008478
v -0.399624 0.148481 0.007683
v -0.438225 0.290030 -0.018937
v -0.366900 0.281652 -0.001455
v -0.394293 0.135046 -0.017892
v -0.437937 0.139767 -0.017892
v -0.426234 0.150710 -0.028075
v -0.399406 0.144748 -0.028075
v -0.394293 0.135046 -0.001304
v 0.295656 0.715931 0.051318
v 0.250451 0.753031 0.033280
v 0.293280 0.754909 -0.055309
v 0.354585 0.749495 -0.055309
v 0.371592 0.706903 0.034759
v 0.393775 0.627951 0.025012
v 0.419486 0.649165 0.024533
v 0.434315 0.697452 0.022658
v 0.354585 0.749495 0.034917
v 0.293280 0.754909 0.034917
v 0.361330 0.755868 -0.029080
v 0.293208 0.761204 -0.029080
v 0.393908 0.616319 -0.010196
v 0.455688 0.643520 0.004296
v 0.474252 0.703969 0.008688
v 0.385893 0.707067 0.005790
v 0.434315 0.697452 -0.043050
v 0.419486 0.649165 -0.044925
v 0.455688 0.643520 -0.024688
v 0.295656 0.715931 -0.071710
v 0.283670 0.774299 -0.053079
v 0.250451 0.753031 -0.053672
v 0.385893 0.707067 -0.026182
v 0.283598 0.780594 -0.029080
v 0.246724 0.745913 -0.024688
v 0.258424 0.765548 -0.024688
v 0.237935 0.739683 -0.024688
v 0.246724 0.745913 0.004296
v 0.361330 0.755868 0.008688
v 0.474252 0.703969 -0.029080
v 0.293208 0.761204 0.008688
v 0.250379 0.759325 0.004296
v 0.258424 0.765548 0.004296
v -0.438225 0.290030 -0.001455
v -0.437937 0.139767 -0.001304
v -0.366900 0.281652 -0.018937
v -0.356022 0.374466 -0.018594
v -0.414199 0.411558 -0.001798
v -0.395600 0.467781 0.000292
v -0.182401 0.554986 0.000292
v 0.158258 0.595539 -0.020684
v 0.203554 0.710004 -0.020684
v -0.309618 0.546039 0.000292
v 0.258496 0.759253 -0.053672
v 0.252419 0.807916 -0.046856
v 0.267793 0.793471 -0.046534
v 0.283670 0.774299 0.032688
v 0.258496 0.759253 0.033280
v 0.250379 0.759325 -0.024688
v 0.252380 0.811335 -0.031111
v 0.249301 0.798112 -0.031111
v 0.249340 0.794692 0.026464
v 0.249301 0.798112 0.010719
v 0.267754 0.796890 -0.033497
v 0.283598 0.780594 0.008688
v 0.252419 0.807916 0.026464
v 0.252380 0.811335 0.010719
v 0.249340 0.794692 -0.046856
v 0.267793 0.793471 0.026142
v 0.267754 0.796890 0.013105
vt 0.6245 0.4502
vt 0.4793 0.3411
vt 0.6878 0.4135
vt 0.5093 0.6370
vt 0.6116 0.6142
vt 0.6619 0.6328
vt 0.6202 0.5216
vt 0.7234 0.4815
vt 0.7056 0.5304
vt 0.5112 0.6129
vt 0.4979 0.5077
vt 0.4891 0.6656
vt 0.3699 0.6551
vt 0.3777 0.7174
vt 0.5634 0.5112
vt 0.4477 0.5612
vt 0.5665 0.5673
vt 0.3768 0.7176
vt 0.3316 0.7514
vt 0.3392 0.8256
vt 0.4282 0.4691
vt 0.3196 0.5640
vt 0.4474 0.5603
vt 0.4859 0.4170
vt 0.3425 0.3930
vt 0.3847 0.6391
vt 0.3922 0.5252
vt 0.2595 0.6525
vt 0.2528 0.6997
vt 0.2861 0.7225
vt 0.2992 0.6436
vt 0.3191 0.5633
vt 0.2362 0.5956
vt 0.2595 0.6519
vt 0.2603 0.5899
vt 0.2318 0.5715
vt 0.2720 0.7913
vt 0.3152 0.7652
vt 0.2863 0.7228
vt 0.2349 0.5708
vt 0.2603 0.6804
vt 0.2429 0.7327
vt 0.3390 0.8256
vt 0.3153 0.7653
vt 0.3206 0.8499
vt 0.3372 0.7286
vt 0.2756 0.6910
vt 0.5668 0.5669
vt 0.6462 0.5117
vt 0.5635 0.5112
vt 0.7454 0.5260
vt 0.5901 0.4447
vt 0.6460 0.5120
vt 0.7532 0.4918
vt 0.6606 0.6322
vt 0.6925 0.5790
vt 0.7494 0.6233
vt 0.7952 0.4945
vt 0.7595 0.6338
vt 0.7061 0.5437
vt 0.6493 0.6068
vt 0.7489 0.6236
vt 0.7994 0.5442
vt 0.7498 0.6220
vt 0.8117 0.5456
vt 0.7648 0.6398
vt 0.7054 0.5435
vt 0.7529 0.4918
vt 0.6465 0.5120
vt 0.7952 0.4936
vt 0.8226 0.4888
vt 0.8002 0.5429
vt 0.6637 0.6535
vt 0.6496 0.6069
vt 0.5768 0.6228
vt 0.6683 0.6480
vt 0.6408 0.6052
vt 0.7544 0.4907
vt 0.7652 0.5160
vt 0.3332 0.8167
vt 0.3176 0.7622
vt 0.3375 0.7290
vt 0.3394 0.8250
vt 0.3340 0.8701
vt 0.3535 0.8212
vt 0.2275 0.5971
vt 0.2532 0.7008
vt 0.2364 0.5960
vt 0.2349 0.5715
vt 0.2286 0.7293
vt 0.2179 0.5663
vt 0.3179 0.7622
vt 0.2654 0.7792
vt 0.2428 0.7397
vt 0.2417 0.8323
vt 0.2114 0.7582
vt 0.2849 0.4340
vt 0.2359 0.5960
vt 0.2949 0.4887
vt 0.3007 0.3830
vt 0.2317 0.5723
vt 0.2157 0.5663
vt 0.4281 0.4692
vt 0.2849 0.4342
vt 0.2951 0.4884
vt 0.5080 0.3519
vt 0.3822 0.3995
vt 0.3764 0.3783
vt 0.3796 0.7041
vt 0.3377 0.7282
vt 0.3856 0.7215
vt 0.3395 0.8252
vt 0.3537 0.8210
vt 0.4961 0.6784
vt 0.3777 0.7180
vt 0.3858 0.7224
vt 0.5768 0.6245
vt 0.4891 0.6657
vt 0.6627 0.6523
vt 0.6678 0.6488
vt 0.5097 0.6376
vt 0.6620 0.6312
vt 0.5626 0.5100
vt 0.4323 0.4102
vt 0.4292 0.4698
vt 0.6966 0.3900
vt 0.8063 0.4695
vt 0.8443 0.3556
vt 0.8114 0.5456
vt 0.8224 0.4887
vt 0.8321 0.4941
vt 0.7737 0.5063
vt 0.7536 0.4907
vt 0.8123 0.5122
vt 0.7707 0.4693
vt 0.7918 0.3902
vt 0.8384 0.2249
vt 0.8177 0.2297
vt 0.8325 0.4938
vt 0.8498 0.3578
vt 0.7706 0.4697
vt 0.8273 0.3951
vt 0.7911 0.3916
vt 0.7777 0.4893
vt 0.8436 0.5397
vt 0.8094 0.2133
vt 0.8355 0.2503
vt 0.8126 0.2761
vt 0.9372 0.5669
vt 0.9438 0.5785
vt 0.8150 0.3513
vt 0.8474 0.3534
vt 0.8536 0.2464
vt 0.3203 0.8491
vt 0.2791 0.8284
vt 0.3130 0.8667
vt 0.2429 0.7402
vt 0.6497 0.6049
vt 0.5669 0.5667
vt 0.5771 0.6229
vt 0.2594 0.5922
vt 0.2449 0.7428
vt 0.2860 0.7223
vt 0.2528 0.6998
vt 0.3693 0.6553
vt 0.2593 0.6523
vt 0.3317 0.7512
vt 0.3545 0.4437
vt 0.2863 0.7230
vt 0.3153 0.7652
vt 0.4473 0.5606
vt 0.4596 0.6353
vt 0.5669 0.5679
vt 0.4603 0.6336
vt 0.5771 0.6241
vt 0.6113 0.6135
vt 0.6497 0.6067
vt 0.7054 0.5433
vt 0.6472 0.5616
vt 0.7052 0.5437
vt 0.6462 0.5113
vt 0.6472 0.5609
vt 0.2647 0.7779
vt 0.2509 0.8622
vt 0.2413 0.8327
vt 0.2470 0.8380
vt 0.2105 0.7716
vt 0.1896 0.8263
vt 0.2725 0.7920
vt 0.2458 0.8810
vt 0.2771 0.8777
vt 0.2508 0.8621
vt 0.2735 0.8858
vt 0.2374 0.8745
vt 0.2288 0.7341
vt 0.2125 0.7555
vt 0.2080 0.7492
vt 0.2447 0.7429
vt 0.2471 0.8380
vt 0.2724 0.7920
vt 0.1674 0.7806
vt 0.1897 0.8263
vt 0.2103 0.7721
vt 0.2293 0.8409
vt 0.2065 0.8262
vt 0.1522 0.8305
vt 0.2413 0.8336
vt 0.1989 0.7764
vt 0.2123 0.7596
vt 0.2093 0.7461
vt 0.1977 0.7775
vt 0.1645 0.7868
vt 0.2803 0.8692
vt 0.2761 0.8213
vt 0.2915 0.9070
vt 0.3210 0.8439
vt 0.2758 0.8198
vt 0.2415 0.8336
vt 0.2373 0.8744
vt 0.2260 0.8431
vt 0.2734 0.8864
vt 0.2888 0.8738
vt 0.2815 0.8857
vt 0.2500 0.9063
vt 0.2709 0.9059
vt 0.2804 0.9126
vt 0.3339 0.8701
vt 0.3178 0.8710
vt 0.3260 0.8526
vt 0.2315 0.8748
vt 0.2457 0.8807
vt 0.2163 0.8488
vt 0.2375 0.8742
vt 0.2315 0.8750
vt 0.2027 0.7519
vt 0.2103 0.7715
vt 0.2304 0.7533
vt 0.1743 0.7671
vt 0.1713 0.7819
vt 0.1651 0.7824
vt 0.2262 0.8430
vt 0.1721 0.8217
vt 0.2169 0.8481
vt 0.1523 0.8298
vt 0.2265 0.8421
vt 0.1538 0.8418
vt 0.1706 0.7816
vt 0.1733 0.7830
vt 0.2379 0.7413
vt 0.2301 0.7536
vt 0.2449 0.7506
vt 0.2457 0.8808
vt 0.2773 0.9059
vt 0.2770 0.8775
vt 0.2374 0.8738
vt 0.2543 0.9038
vt 0.2349 0.8929
vt 0.0381 0.7267
vt 0.0316 0.7354
vt 0.0241 0.7376
vt 0.2840 0.9025
vt 0.2738 0.8841
vt 0.2899 0.8919
vt 0.8346 0.3977
vt 0.8385 0.2231
vt 0.8272 0.3962
vt 0.8349 0.3976
vt 0.8536 0.2472
vt 0.8478 0.2419
vt 0.7814 0.3455
vt 0.9311 0.3731
vt 1.0299 0.3401
vt 0.9364 0.3864
vt 0.9470 0.5516
vt 1.0617 0.3571
vt 1.0355 0.3260
vt 0.7957 0.4695
vt 0.8548 0.4210
vt 0.8578 0.4360
vt 0.8218 0.5111
vt 0.8273 0.3953
vt 0.8126 0.5124
vt 0.8323 0.4940
vt 0.8345 0.3976
vt 0.8220 0.5110
vt 0.8392 0.4620
vt 0.8646 0.4548
vt 0.8437 0.4309
vt 0.8218 0.5513
vt 0.8124 0.5123
vt 0.8067 0.5496
vt 0.8115 0.5453
vt 0.8217 0.5120
vt 0.8216 0.5509
vt 0.4620 0.6848
vt 0.6271 0.5846
vt 0.4892 0.6657
vt 0.6749 0.6631
vt 0.6631 0.6521
vt 0.6744 0.6638
vt 0.4950 0.6650
vt 0.6681 0.6478
vt 0.4946 0.6650
vt 0.3797 0.7036
vt 0.4964 0.6787
vt 0.3847 0.7151
vt 0.3854 0.7160
vt 0.3336 0.8162
vt 0.3859 0.7222
vt 0.3420 0.8197
vt 0.3855 0.7163
vt 0.3414 0.7244
vt 0.3435 0.7027
vt 0.2763 0.4247
vt 0.2274 0.5961
vt 0.2852 0.4346
vt 0.2273 0.5971
vt 0.2288 0.7297
vt 0.2448 0.7423
vt 0.3335 0.8163
vt 0.3257 0.8519
vt 0.3425 0.8187
vt 0.3341 0.8699
vt 0.6747 0.6639
vt 0.7593 0.6333
vt 0.6632 0.6514
vt 0.6678 0.6469
vt 0.7655 0.6473
vt 0.6741 0.6643
vt 0.7592 0.6343
vt 0.8217 0.5514
vt 0.8066 0.5496
vt 0.7649 0.6401
vt 0.8220 0.5506
vt 0.3112 0.8634
vt 0.2999 0.9193
vt 0.3069 0.8627
vt 0.3033 0.8762
vt 0.2939 0.9078
vt 0.2791 0.8281
vt 0.3038 0.8741
vt 0.3132 0.8666
vt 0.2696 0.8999
vt 0.2747 0.9064
vt 0.3242 0.8891
vt 0.3123 0.9211
vt 0.3190 0.9231
vt 0.2679 0.8997
vt 0.2687 0.8999
vt 0.2773 0.9054
vt 0.2857 0.8785
vt 0.2770 0.8779
vt 0.3264 0.8527
vt 0.3111 0.8622
vt 0.2885 0.9126
vt 0.3109 0.8549
vt 0.3192 0.8797
vt 0.3078 0.8611
vt 0.3334 0.8710
vt 0.3130 0.8665
vt 0.2788 0.8292
vt 0.2725 0.7921
vt 0.2913 0.8798
vt 0.2926 0.8785
vt 0.2922 0.8800
vt 0.3129 0.9429
vt 0.3165 0.9454
vt 0.2692 0.8984
vt 0.2702 0.8987
vt 0.3129 0.9428
vt 0.3045 0.9205
vt 0.3121 0.9215
vt 0.3277 0.8782
vt 0.3077 0.9432
vt 0.3186 0.8737
vt 0.3192 0.8799
vt 0.3188 0.9229
vt 0.3142 0.9219
vt 0.3119 0.8650
vt 0.3077 0.9435
vt 0.3054 0.9349
vt 0.3192 0.8798
vt 0.3054 0.9199
vt 0.3077 0.8612
vt 0.3043 0.8738
vt 0.2984 0.9214
vt 0.2770 0.8784
vt 0.2916 0.8780
vt 0.3039 0.8740
vt 0.2985 0.9207
vt 0.3119 0.9418
vt 0.3039 0.8739
vt 0.3125 0.9216
vt 0.3129 0.8666
vt 0.4594 0.6336
vt 0.4285 0.4698
vt 0.3702 0.6549
vt 0.2950 0.4889
vt 0.2363 0.5959
vt 0.3372 0.7293
vt 0.2951 0.4886
vt 0.3206 0.8501
vt 0.6473 0.5605
vt 0.5638 0.5118
vt 0.8001 0.5433
vt 0.8066 0.5494
vt 0.8004 0.5438
vt 0.8072 0.5494
vt 0.7584 0.6335
vt 0.7549 0.4322
vt 0.3205 0.8496
vt 0.2447 0.7428
vt 0.2430 0.7322
vt 0.2646 0.7771
vt 0.2271 0.5975
vt 0.3431 0.3920
vt 0.4325 0.4081
vt 0.5043 0.3751
vt 0.3775 0.7175
vt 0.4893 0.6657
vt 0.4596 0.6334
vt 0.4946 0.6644
vt 0.5900 0.4437
vt 0.8002 0.5433
vt 0.8272 0.3968
vt 0.8224 0.4886
vt 0.8125 0.5122
vt 0.8501 0.5272
vt 0.8108 0.2482
vt 0.2725 0.7919
vt 0.6472 0.5610
vt 0.2718 0.7911
vt 0.3188 0.5630
vt 0.3189 0.5633
vt 0.2798 0.8720
vt 0.2240 0.7635
vt 0.2471 0.8381
vt 0.2800 0.8724
vt 0.2423 0.7392
vt 0.2302 0.7541
vt 0.1523 0.8301
vt 0.2470 0.8381
vt 0.2180 0.7576
vt 0.2642 0.7795
vt 0.2805 0.8717
vt 0.2645 0.9009
vt 0.3258 0.8812
vt 0.2294 0.8409
vt 0.2259 0.8430
vt 0.1678 0.7806
vt 0.1507 0.8418
vt 0.1542 0.8442
vt 0.1516 0.8334
vt 0.2122 0.7554
vt 0.2524 0.9042
vt 0.2736 0.8854
vt 0.0462 0.7247
vt 0.2547 0.9038
vt 0.8475 0.2420
vt 0.8477 0.3538
vt 0.9616 0.5491
vt 1.0445 0.3615
vt 0.7796 0.4360
vt 0.8342 0.3980
vt 0.8499 0.3576
vt 0.8216 0.5119
vt 0.8319 0.4940
vt 0.4695 0.7063
vt 0.4964 0.6783
vt 0.3538 0.8224
vt 0.2179 0.5654
vt 0.2182 0.5655
vt 0.3423 0.8193
vt 0.3536 0.8212
vt 0.7658 0.6467
vt 0.7658 0.6479
vt 0.3051 0.9344
vt 0.3081 0.8600
vt 0.2770 0.8781
vt 0.3129 0.8662
vt 0.2899 0.9108
vt 0.3185 0.8732
vt 0.3241 0.8785
vt 0.3204 0.8488
vt 0.2856 0.8783
vt 0.3121 0.9214
vt 0.3045 0.9401
vt 0.3172 0.9455
vt 0.3242 0.8893
vt 0.3185 0.8723
vt 0.3144 0.9221
vt 0.3092 0.9044
vt 0.3120 0.9417
vn -0.1606 -0.4893 -0.8572
vn -0.0440 -0.9438 -0.3277
vn -0.3215 -0.8680 -0.3784
vn -0.1115 0.9496 -0.2929
vn -0.0205 0.5707 -0.8209
vn -0.0402 0.8869 -0.4601
vn -0.0421 -0.0072 -0.9991
vn -0.2485 -0.4001 -0.8822
vn -0.1717 0.0620 -0.9832
vn -0.0657 0.5238 -0.8493
vn -0.0142 -0.0344 -0.9993
vn -0.1115 0.9496 0.2929
vn -0.2377 0.3658 0.8998
vn -0.7190 0.6317 0.2897
vn -0.1606 -0.4893 0.8572
vn -0.0142 -0.0344 0.9993
vn -0.0421 -0.0072 0.9991
vn -0.4294 0.3912 0.8140
vn -0.7384 0.4886 0.4648
vn 0.0173 -0.5538 0.8324
vn 0.0493 -0.0125 0.9987
vn 0.0173 -0.5538 -0.8324
vn 0.5550 -0.7789 -0.2919
vn -0.2377 0.3658 -0.8998
vn 0.0493 -0.0125 -0.9987
vn 0.1329 0.1430 0.9808
vn 0.4458 0.1583 0.8810
vn 0.1490 0.2324 0.9611
vn 0.1329 0.1430 -0.9808
vn 0.5662 -0.1354 0.8131
vn 0.5662 -0.1354 -0.8131
vn 0.8756 -0.1612 -0.4553
vn 0.1183 0.1005 0.9879
vn -0.0609 0.3786 0.9236
vn 0.4458 0.1583 -0.8810
vn 0.5478 -0.0662 -0.8340
vn -0.5768 0.4316 0.6936
vn -0.4294 0.3912 -0.8140
vn 0.1490 0.2324 -0.9611
vn -0.2485 -0.4001 0.8822
vn -0.3223 0.0592 -0.9448
vn -0.3215 -0.8680 0.3784
vn -0.1556 -0.6251 0.7649
vn -0.1093 0.5314 -0.8400
vn -0.3438 0.7412 -0.5765
vn -0.1556 -0.6251 -0.7649
vn -0.3438 0.7412 0.5765
vn -0.3223 0.0592 0.9448
vn -0.1093 0.5314 0.8400
vn -0.6897 0.2935 -0.6619
vn -0.8382 0.5257 -0.1450
vn -0.3943 0.9091 -0.1344
vn -0.5422 0.0838 -0.8360
vn -0.0402 0.8869 0.4601
vn -0.0205 0.5707 0.8209
vn -0.0359 0.9873 -0.1544
vn -0.3399 -0.9405 0.0000
vn 0.3474 -0.9377 0.0000
vn -0.7384 0.4886 -0.4648
vn -0.0609 0.3786 -0.9236
vn -0.7016 0.7124 0.0133
vn -0.8054 0.5865 0.0857
vn 0.8756 -0.1612 0.4553
vn 0.8850 -0.4657 0.0000
vn 0.9780 -0.2086 0.0000
vn 0.1183 0.1005 -0.9879
vn 0.4304 0.2783 -0.8587
vn 0.4575 -0.5454 -0.7023
vn 0.5550 -0.7789 0.2919
vn 0.3279 -0.4807 0.8133
vn 0.5826 -0.8128 0.0000
vn -0.0285 -0.9996 0.0000
vn -0.7190 0.6317 -0.2897
vn -0.6629 0.7483 -0.0228
vn -0.1844 0.9804 -0.0690
vn -0.0440 -0.9438 0.3277
vn 0.3241 -0.2784 -0.9041
vn -0.5566 0.0295 -0.8302
vn -0.9316 0.2443 -0.2692
vn 0.9139 -0.3669 0.1736
vn -0.5422 0.0838 0.8360
vn 0.3241 -0.2784 0.9041
vn 0.5669 -0.0981 0.8179
vn -0.2695 -0.2642 0.9260
vn 0.3382 -0.2901 0.8952
vn -0.9716 0.0816 -0.2221
vn -0.5576 0.0300 0.8296
vn 0.9708 -0.1449 0.1910
vn 0.5418 -0.7609 -0.3569
vn -0.3075 -0.2733 -0.9114
vn 0.3083 -0.4202 -0.8534
vn 0.5347 -0.7414 0.4055
vn 0.5654 -0.0973 -0.8191
vn -0.6767 -0.6113 -0.4105
vn 0.4019 0.1337 0.9058
vn -0.6343 0.2993 0.7128
vn 0.5478 -0.0662 0.8340
vn 0.3279 -0.4807 -0.8133
vn -0.0657 0.5238 0.8493
vn -0.1717 0.0620 0.9832
vn 0.4180 0.5930 -0.6882
vn 0.4304 0.2783 0.8587
vn 0.3189 -0.3759 0.8701
vn 0.2341 0.4533 0.8601
vn 0.4180 0.5930 0.6882
vn 0.4937 0.5619 0.6637
vn 0.2782 0.9484 0.1525
vn 0.5677 0.8051 -0.1717
vn 0.4779 -0.8784 0.0000
vn 0.6684 -0.5923 0.4499
vn 0.5085 0.8481 0.1489
vn 0.7299 0.4832 0.4835
vn 0.3189 -0.3759 -0.8701
vn 0.6684 -0.5923 -0.4499
vn 0.4937 0.5619 -0.6638
vn 0.4019 0.1337 -0.9058
vn 0.5049 0.5144 -0.6932
vn -0.5768 0.4315 -0.6936
vn 0.5085 0.8481 -0.1489
vn 0.6258 0.5156 0.5852
vn 0.0264 0.0809 0.9964
vn -0.2896 0.6055 0.7413
vn -0.7016 0.7124 -0.0133
vn 0.5677 0.8051 0.1717
vn 0.4575 -0.5454 0.7023
vn 0.2341 0.4533 -0.8601
vn 0.7299 0.4832 -0.4835
vn 0.2782 0.9483 -0.1525
vn -0.2896 0.6055 -0.7413
vn -0.6210 0.1810 -0.7626
vn 0.0264 0.0809 -0.9964
vn -0.9715 0.0810 0.2226
vn -0.6745 -0.6051 0.4229
vn 0.9712 -0.1435 -0.1901
vn 0.9139 -0.3669 -0.1736
vn -0.9316 0.2443 0.2692
vn -0.8382 0.5257 0.1450
vn -0.6897 0.2935 0.6619
vn -0.0359 0.9873 0.1544
vn -0.1844 0.9804 0.0690
vn -0.6629 0.7483 0.0228
vn -0.8054 0.5865 -0.0857
vn -0.3943 0.9091 0.1344
vn -0.1296 0.2133 -0.9683
vn 0.5061 0.5487 -0.6654
vn -0.1296 0.2133 0.9683
vn -0.8464 0.1240 0.5179
vn -0.6210 0.1810 0.7626
vn -0.8380 0.1011 0.5362
vn -0.8464 0.1240 -0.5179
vn 0.6254 0.6236 0.4691
vn -0.2231 0.8596 0.4597
vn 0.5049 0.5144 0.6932
vn -0.6343 0.2993 -0.7128
vn 0.6258 0.5156 -0.5852
vn -0.2594 0.7562 -0.6008
vn -0.2594 0.7562 0.6008
vn -0.2231 0.8596 -0.4597
vn -0.8380 0.1011 -0.5362
vn 0.6254 0.6236 -0.4691
vn 0.5061 0.5487 0.6654
s 1
f 2/1/1 4/2/2 1/3/3
f 6/4/4 8/5/5 5/6/6
f 9/7/7 10/8/8 11/9/9
f 9/7/7 7/10/10 12/11/11
f 13/12/12 15/13/13 16/14/14
f 18/15/15 20/16/16 17/17/17
f 16/18/14 21/19/18 22/20/19
f 19/21/20 24/22/21 20/23/16
f 3/24/22 26/25/23 4/2/2
f 12/11/11 27/26/24 28/27/25
f 29/28/26 31/29/27 32/30/28
f 27/26/24 34/31/29 28/27/25
f 24/32/21 30/33/30 29/34/26
f 26/25/23 35/35/31 36/36/32
f 37/37/33 39/38/34 32/39/28
f 36/40/32 40/41/35 41/42/36
f 22/43/19 39/44/34 38/45/37
f 33/46/38 43/47/39 34/31/29
f 17/48/17 45/49/40 18/50/15
f 46/51/41 11/9/9 10/8/8
f 47/52/42 45/53/40 48/54/43
f 5/55/6 49/56/44 50/57/45
f 51/58/46 46/51/41 10/8/8
f 49/56/44 11/9/9 46/51/41
f 54/59/47 56/60/48 53/61/49
f 50/62/45 46/51/41 52/63/50
f 50/64/45 58/65/51 57/66/52
f 56/67/48 48/68/43 45/69/40
f 51/70/46 60/71/53 52/72/50
f 62/73/54 53/74/49 61/75/55
f 63/76/56 50/57/45 57/66/52
f 1/3/3 10/8/8 2/1/1
f 64/77/57 48/78/43 65/79/58
f 66/80/59 42/81/60 33/82/38
f 22/83/19 69/84/61 68/85/62
f 70/86/63 31/87/27 30/88/30
f 36/89/32 73/90/64 72/91/65
f 42/92/60 74/93/66 43/47/39
f 41/94/36 75/95/67 76/96/68
f 77/97/69 30/98/30 23/99/70
f 78/100/71 36/101/32 72/102/65
f 19/103/20 77/104/69 23/105/70
f 80/106/72 26/107/23 78/108/71
f 81/109/73 33/110/38 27/26/24
f 82/111/74 22/112/19 68/113/62
f 6/4/4 27/26/24 7/10/10
f 83/114/75 16/115/14 82/116/74
f 61/117/55 13/118/12 62/119/54
f 63/120/56 6/121/4 5/122/6
f 18/123/15 79/124/76 19/125/20
f 1/3/3 80/106/72 64/126/57
f 59/127/77 86/128/78 60/71/53
f 58/129/51 60/130/53 87/131/79
f 48/78/43 89/132/80 65/79/58
f 48/133/43 90/134/81 88/135/82
f 91/136/83 93/137/84 94/138/85
f 87/139/79 86/128/78 95/140/86
f 88/141/82 92/142/87 91/143/83
f 88/144/82 96/145/88 89/132/80
f 97/146/89 99/147/90 100/148/91
f 96/145/88 94/149/85 101/150/92
f 85/151/93 99/147/90 86/128/78
f 95/152/86 99/147/90 98/153/94
f 38/154/37 102/155/95 103/156/96
f 43/47/39 41/157/36 40/41/35
f 53/158/49 17/159/17 61/160/55
f 34/31/29 40/41/35 35/161/31
f 71/162/97 32/163/28 31/164/27
f 15/165/13 29/166/26 21/167/18
f 28/27/25 35/161/31 25/168/98
f 21/167/18 32/169/28 39/170/34
f 3/24/22 28/27/25 25/168/98
f 20/171/16 15/165/13 14/172/99
f 17/173/17 14/174/99 61/175/55
f 2/1/1 12/11/11 3/24/22
f 9/7/7 49/56/44 8/176/5
f 53/177/49 56/178/48 44/179/100
f 56/180/48 45/181/40 44/182/100
f 74/183/66 105/184/101 75/185/67
f 106/186/102 108/187/103 109/188/104
f 37/189/33 110/190/105 111/191/106
f 105/192/101 113/193/107 112/194/108
f 73/195/64 76/196/68 114/197/109
f 71/198/97 106/199/102 37/200/33
f 115/201/110 109/202/104 108/203/103
f 117/204/111 109/205/104 116/206/112
f 75/207/67 119/208/113 76/209/68
f 114/210/109 119/211/113 120/212/114
f 104/213/115 121/214/116 122/215/117
f 67/216/118 121/217/116 74/93/66
f 75/218/67 112/219/108 124/220/119
f 113/221/107 122/222/117 125/223/120
f 113/224/107 127/225/121 126/226/122
f 69/227/61 126/228/122 128/229/123
f 106/199/102 130/230/124 110/231/105
f 117/232/111 112/233/108 130/234/124
f 114/235/109 108/236/103 107/237/125
f 114/238/109 120/239/114 115/240/110
f 124/241/119 118/242/126 75/207/67
f 117/243/111 131/244/127 124/245/119
f 118/242/126 120/212/114 119/211/113
f 131/246/127 115/247/110 120/248/114
f 73/249/64 107/250/125 71/251/97
f 110/252/105 132/253/128 111/254/106
f 112/255/108 132/256/128 130/257/124
f 129/258/129 133/259/130 134/260/131
f 129/261/129 113/262/107 126/263/122
f 135/264/132 93/265/84 92/266/87
f 135/267/132 98/268/94 136/269/133
f 137/270/134 100/148/91 85/151/93
f 96/271/88 97/272/89 137/273/134
f 93/274/84 101/150/92 94/149/85
f 136/275/133 97/272/89 101/276/92
f 59/277/77 137/270/134 85/151/93
f 89/278/80 137/273/134 138/279/135
f 139/280/136 92/281/87 90/282/81
f 87/283/79 135/284/132 139/285/136
f 51/286/46 138/279/135 59/287/77
f 65/288/58 89/278/80 138/279/135
f 140/289/137 90/290/81 55/291/138
f 58/292/51 139/293/136 140/294/137
f 64/77/57 79/295/76 47/296/42
f 13/297/12 141/298/139 62/299/54
f 141/300/139 84/301/140 63/302/56
f 84/303/140 81/304/73 6/4/4
f 83/305/75 142/306/141 84/301/140
f 142/307/141 66/308/59 81/109/73
f 82/309/74 143/310/142 142/311/141
f 79/295/76 78/312/71 77/313/69
f 78/314/71 70/315/63 77/316/69
f 70/317/63 73/318/64 71/319/97
f 66/320/59 128/321/123 67/216/118
f 143/322/142 69/323/61 128/229/123
f 64/126/57 51/286/46 1/3/3
f 141/324/139 54/325/47 62/326/54
f 63/327/56 144/328/143 141/329/139
f 54/330/47 140/331/137 55/332/138
f 57/333/52 140/334/137 144/328/143
f 145/335/144 147/336/145 122/337/117
f 121/217/116 145/338/144 122/339/117
f 102/340/95 149/341/146 103/342/96
f 127/225/121 152/343/147 150/344/148
f 133/345/130 153/346/149 154/347/150
f 127/225/121 155/348/151 151/349/152
f 132/350/128 148/351/153 111/352/106
f 128/353/123 123/354/154 67/216/118
f 126/226/122 150/344/148 128/355/123
f 132/356/128 134/357/131 156/358/155
f 69/359/61 103/360/96 133/345/130
f 111/352/106 102/361/95 37/362/33
f 155/363/151 146/364/156 151/365/152
f 154/347/150 157/366/157 158/367/158
f 152/343/147 146/368/156 159/369/159
f 157/370/157 161/371/160 158/372/158
f 150/373/148 159/374/159 123/375/154
f 134/376/131 154/377/150 158/378/158
f 145/379/144 159/380/159 146/381/156
f 134/382/131 161/383/160 156/384/155
f 156/385/155 160/386/161 148/387/153
f 125/223/120 147/388/145 155/363/151
f 149/389/146 160/390/161 157/391/157
f 149/392/146 153/393/149 103/394/96
f 2/1/1 3/24/22 4/2/2
f 6/4/4 7/10/10 8/5/5
f 9/7/7 2/1/1 10/8/8
f 9/7/7 8/5/5 7/10/10
f 13/12/12 14/395/99 15/13/13
f 18/15/15 19/396/20 20/16/16
f 16/18/14 15/397/13 21/19/18
f 19/21/20 23/398/70 24/22/21
f 3/24/22 25/168/98 26/25/23
f 12/11/11 7/10/10 27/26/24
f 29/28/26 30/399/30 31/29/27
f 27/26/24 33/400/38 34/31/29
f 24/32/21 23/401/70 30/33/30
f 26/25/23 25/168/98 35/35/31
f 37/37/33 38/402/37 39/38/34
f 36/40/32 35/161/31 40/41/35
f 22/43/19 21/167/18 39/44/34
f 33/46/38 42/92/60 43/47/39
f 17/48/17 44/403/100 45/49/40
f 47/52/42 18/404/15 45/53/40
f 5/55/6 8/176/5 49/56/44
f 51/58/46 52/405/50 46/51/41
f 54/59/47 55/406/138 56/60/48
f 50/62/45 49/56/44 46/51/41
f 50/64/45 52/407/50 58/65/51
f 56/67/48 55/408/138 48/68/43
f 51/70/46 59/127/77 60/71/53
f 62/73/54 54/409/47 53/74/49
f 63/76/56 5/55/6 50/57/45
f 1/3/3 51/410/46 10/8/8
f 64/77/57 47/296/42 48/78/43
f 66/80/59 67/216/118 42/81/60
f 22/83/19 38/411/37 69/84/61
f 70/86/63 71/412/97 31/87/27
f 36/89/32 41/413/36 73/90/64
f 42/92/60 67/216/118 74/93/66
f 41/94/36 74/414/66 75/95/67
f 77/97/69 70/415/63 30/98/30
f 78/100/71 26/416/23 36/101/32
f 19/103/20 79/417/76 77/104/69
f 80/106/72 4/418/2 26/107/23
f 81/109/73 66/308/59 33/110/38
f 82/111/74 16/419/14 22/112/19
f 6/4/4 81/304/73 27/26/24
f 83/114/75 13/420/12 16/115/14
f 61/117/55 14/421/99 13/118/12
f 63/120/56 84/422/140 6/121/4
f 18/123/15 47/423/42 79/124/76
f 1/3/3 4/418/2 80/106/72
f 59/127/77 85/151/93 86/128/78
f 58/129/51 52/424/50 60/130/53
f 48/78/43 88/144/82 89/132/80
f 48/133/43 55/332/138 90/134/81
f 91/136/83 92/425/87 93/137/84
f 87/139/79 60/426/53 86/128/78
f 88/141/82 90/427/81 92/142/87
f 88/144/82 91/428/83 96/145/88
f 97/146/89 98/153/94 99/147/90
f 96/145/88 91/428/83 94/149/85
f 85/151/93 100/429/91 99/147/90
f 95/152/86 86/128/78 99/147/90
f 38/154/37 37/430/33 102/155/95
f 43/47/39 74/93/66 41/157/36
f 53/158/49 44/431/100 17/159/17
f 34/31/29 43/47/39 40/41/35
f 71/162/97 37/432/33 32/163/28
f 15/165/13 24/433/21 29/166/26
f 28/27/25 34/31/29 35/161/31
f 21/167/18 29/166/26 32/169/28
f 3/24/22 12/11/11 28/27/25
f 20/171/16 24/434/21 15/165/13
f 17/173/17 20/16/16 14/174/99
f 2/1/1 9/7/7 12/11/11
f 9/7/7 11/9/9 49/56/44
f 74/183/66 104/435/115 105/184/101
f 106/186/102 107/436/125 108/187/103
f 37/189/33 106/437/102 110/190/105
f 105/192/101 104/438/115 113/193/107
f 73/195/64 41/439/36 76/196/68
f 71/198/97 107/440/125 106/199/102
f 115/201/110 116/441/112 109/202/104
f 117/204/111 106/442/102 109/205/104
f 75/207/67 118/242/126 119/208/113
f 114/210/109 76/443/68 119/211/113
f 104/213/115 74/444/66 121/214/116
f 67/216/118 123/354/154 121/217/116
f 75/218/67 105/192/101 112/219/108
f 113/221/107 104/445/115 122/222/117
f 113/224/107 125/446/120 127/225/121
f 69/227/61 129/447/129 126/228/122
f 106/199/102 117/448/111 130/230/124
f 117/232/111 124/449/119 112/233/108
f 114/235/109 115/450/110 108/236/103
f 124/241/119 131/451/127 118/242/126
f 117/243/111 116/452/112 131/244/127
f 118/242/126 131/451/127 120/212/114
f 131/246/127 116/453/112 115/247/110
f 73/249/64 114/454/109 107/250/125
f 110/252/105 130/455/124 132/253/128
f 112/255/108 113/456/107 132/256/128
f 129/258/129 69/457/61 133/259/130
f 129/261/129 132/458/128 113/262/107
f 135/264/132 136/459/133 93/265/84
f 135/267/132 95/460/86 98/268/94
f 137/270/134 97/146/89 100/148/91
f 96/271/88 101/276/92 97/272/89
f 93/274/84 136/461/133 101/150/92
f 136/275/133 98/462/94 97/272/89
f 59/277/77 138/463/135 137/270/134
f 89/278/80 96/271/88 137/273/134
f 139/280/136 135/464/132 92/281/87
f 87/283/79 95/465/86 135/284/132
f 51/286/46 65/288/58 138/279/135
f 140/289/137 139/466/136 90/290/81
f 58/292/51 87/467/79 139/293/136
f 64/77/57 80/468/72 79/295/76
f 13/297/12 83/469/75 141/298/139
f 141/300/139 83/305/75 84/301/140
f 84/303/140 142/306/141 81/304/73
f 83/305/75 82/309/74 142/306/141
f 142/307/141 143/310/142 66/308/59
f 82/309/74 68/470/62 143/310/142
f 79/295/76 80/468/72 78/312/71
f 78/314/71 72/471/65 70/315/63
f 70/317/63 72/472/65 73/318/64
f 66/320/59 143/473/142 128/321/123
f 143/322/142 68/474/62 69/323/61
f 64/126/57 65/288/58 51/286/46
f 141/324/139 144/475/143 54/325/47
f 63/327/56 57/333/52 144/328/143
f 54/330/47 144/476/143 140/331/137
f 57/333/52 58/65/51 140/334/137
f 145/335/144 146/477/156 147/336/145
f 121/217/116 123/478/154 145/338/144
f 102/340/95 148/479/153 149/341/146
f 127/225/121 151/349/152 152/343/147
f 133/345/130 103/480/96 153/346/149
f 127/225/121 125/446/120 155/348/151
f 132/350/128 156/481/155 148/351/153
f 128/353/123 150/482/148 123/354/154
f 126/226/122 127/225/121 150/344/148
f 132/356/128 129/483/129 134/357/131
f 69/359/61 38/484/37 103/360/96
f 111/352/106 148/485/153 102/361/95
f 155/363/151 147/388/145 146/364/156
f 154/347/150 153/486/149 157/366/157
f 152/343/147 151/349/152 146/368/156
f 157/370/157 160/487/161 161/371/160
f 150/373/148 152/488/147 159/374/159
f 134/376/131 133/489/130 154/377/150
f 145/379/144 123/490/154 159/380/159
f 134/382/131 158/491/158 161/383/160
f 156/385/155 161/492/160 160/386/161
f 125/223/120 122/222/117 147/388/145
f 149/389/146 148/479/153 160/390/161
f 149/392/146 157/493/157 153/393/149
