# Blender v2.78 (sub 0) OBJ File: ''
# www.blender.org
mtllib sled.mtl
o Cube.001
v 0.295710 0.401979 0.181698
v 0.131019 0.484911 0.156955
v 0.119853 0.462777 0.199834
v 0.249323 0.401979 0.231324
v -0.658697 0.462777 0.199834
v -0.788168 0.401979 0.231325
v -0.834555 0.401979 -0.182278
v -0.669864 0.484911 -0.157535
v -0.658698 0.462777 -0.200414
v -0.788168 0.401979 -0.231904
v 0.119853 0.462777 -0.200414
v 0.249323 0.401979 -0.231904
v 0.131019 0.275161 -0.157535
v -0.669864 0.275161 -0.157535
v -0.658698 0.297295 -0.200414
v 0.119853 0.297295 -0.200414
v 0.131019 0.484911 -0.157535
v -0.788168 0.319046 -0.231904
v 0.249323 0.319046 -0.231904
v -0.834555 0.319046 -0.182278
v 0.119853 0.297295 0.199834
v 0.249323 0.319046 0.231324
v -0.788168 0.319046 0.231325
v -0.658697 0.297295 0.199834
v 0.131019 0.275161 0.156955
v 0.295710 0.319046 0.181698
v 1.027821 0.401979 0.149425
v 0.866347 0.484911 0.129070
v 0.847920 0.468175 0.199834
v 0.994652 0.397350 0.231324
v 0.481090 0.468175 0.199834
v 0.334358 0.397350 0.231324
v 0.301188 0.401979 -0.150005
v 0.462662 0.484911 -0.129650
v 0.481090 0.468175 -0.200414
v 0.334358 0.397350 -0.231904
v 0.847920 0.468175 -0.200414
v 0.994652 0.397350 -0.231904
v 0.866347 0.275161 -0.129650
v 0.462662 0.275161 -0.129649
v 0.481090 0.289047 -0.200414
v 0.847920 0.289047 -0.200414
v 0.866347 0.484911 -0.129650
v 0.334358 0.326525 -0.231904
v 0.994652 0.326525 -0.231904
v 0.301188 0.319046 -0.150005
v 0.847920 0.289047 0.199834
v 0.994652 0.326525 0.231324
v 0.334358 0.326525 0.231324
v 0.481090 0.289047 0.199834
v 0.866347 0.275161 0.129069
v 1.027821 0.319046 0.149425
v 0.295710 0.401979 -0.182278
v 0.295710 0.319046 -0.182278
v -0.834555 0.401979 0.181699
v -0.834555 0.319046 0.181699
v -0.669864 0.275161 0.156955
v -0.669864 0.484911 0.156955
v 1.027821 0.401979 -0.150005
v 1.027821 0.319046 -0.150005
v 0.301188 0.401979 0.149425
v 0.301188 0.319046 0.149425
v 0.462662 0.275161 0.129070
v 0.462662 0.484911 0.129070
v 0.642414 0.000194 -0.347897
v 0.642414 0.000194 -0.409553
v 1.012346 0.000194 -0.409553
v 1.012346 0.000194 -0.347898
v 0.660164 0.030451 -0.347897
v 1.012346 0.030451 -0.347898
v 1.012346 0.030451 -0.409553
v 0.642414 0.030451 -0.409553
v -1.453862 0.015323 -0.347897
v -1.453862 0.030451 -0.347897
v -1.453863 0.030451 -0.409552
v -1.453862 0.015323 -0.419956
v 0.642414 0.015323 -0.419956
v 1.012346 0.015323 -0.419956
v 1.258966 0.092106 -0.409553
v 1.258967 0.076978 -0.419956
v 0.642414 0.015323 -0.275839
v 0.642414 0.000194 -0.286242
v 1.012346 0.000194 -0.286242
v 1.012346 0.015323 -0.275839
v 1.258967 0.061850 -0.286242
v 1.258967 0.061850 -0.347898
v 1.258966 0.061850 -0.409553
v 1.505587 0.246815 -0.347898
v 1.012346 0.030451 -0.286242
v 1.258967 0.092106 -0.286242
v 1.258967 0.092106 -0.347898
v 1.258967 0.076978 -0.275839
v 1.505587 0.277072 -0.347898
v 1.505588 0.261943 -0.347898
v -0.918407 0.281114 -0.114257
v -0.898966 0.250287 -0.114410
v -0.898966 0.249981 0.000201
v -0.918407 0.280809 0.000201
v 0.580759 0.164305 -0.325849
v 0.580759 0.143218 -0.267912
v 0.580759 0.203084 -0.218430
v 0.580759 0.251951 -0.256025
v -0.837310 0.226686 -0.166420
v -0.837310 0.281946 -0.185064
v -0.837310 0.311942 -0.114104
v -0.837310 0.250287 -0.114410
v 0.580759 0.311942 -0.114104
v 0.580759 0.250287 -0.114410
v 0.580759 0.249981 0.000201
v 0.580759 0.311636 0.000201
v -0.837310 0.143218 -0.267912
v -0.837310 0.164305 -0.325849
v -0.837310 0.251951 -0.256025
v -0.837310 0.203084 -0.218430
v -0.918407 0.153761 -0.296880
v -0.898966 0.143218 -0.267912
v -0.898966 0.203084 -0.218430
v -0.918407 0.227518 -0.237227
v 0.580759 0.281946 -0.185065
v 0.580759 0.226686 -0.166420
v 0.642414 0.281946 -0.185065
v 0.642414 0.311942 -0.114104
v 0.660164 0.153761 -0.296880
v 0.642414 0.164305 -0.325849
v 0.642414 0.251951 -0.256025
v 0.683946 0.227518 -0.249559
v 0.580759 0.092106 -0.347897
v 0.580759 0.092106 -0.286242
v -0.837310 0.092106 -0.286242
v -0.837310 0.092106 -0.347897
v -0.898966 0.092106 -0.347897
v -0.898966 0.164305 -0.325849
v -0.898966 0.092106 -0.286242
v 0.642414 0.226686 -0.166420
v 0.642414 0.250287 -0.114410
v 0.660164 0.092106 -0.317070
v 0.642414 0.092106 -0.347897
v 0.642414 0.143218 -0.267912
v 0.642414 0.203084 -0.218430
v -0.918407 0.254316 -0.175742
v -0.898966 0.226686 -0.166420
v -0.898966 0.030451 -0.286242
v -0.837310 0.030451 -0.286242
v 0.580759 0.030451 -0.286242
v 0.642414 0.030451 -0.286242
v 0.642414 0.092106 -0.286242
v -0.837310 0.030451 -0.409552
v -0.898966 0.030451 -0.409552
v -0.918407 0.030451 -0.347897
v -0.918407 0.092106 -0.317070
v -0.898966 0.251951 -0.256025
v -1.453862 0.015323 -0.275838
v -1.453862 0.000194 -0.286242
v -0.898966 0.000194 -0.286242
v -0.898966 0.015323 -0.275838
v -0.837310 0.000194 -0.286242
v -0.837310 0.015323 -0.275838
v 0.580759 0.000194 -0.286242
v 0.580759 0.015323 -0.275839
v -0.898966 0.015323 -0.419956
v -0.837310 0.015323 -0.419956
v 0.580759 0.030451 -0.409553
v 0.580759 0.015323 -0.419956
v -1.453862 0.000194 -0.347897
v -1.453863 0.000194 -0.409552
v -0.898966 0.000194 -0.409552
v -0.898966 0.000194 -0.347897
v -0.837310 0.000194 -0.409552
v -0.837310 0.000194 -0.347897
v 0.580759 0.000194 -0.409553
v 0.580759 0.000194 -0.347897
v -0.898966 0.281946 -0.185064
v -0.898966 0.311942 -0.114104
v 0.642414 0.311636 0.000201
v 0.642414 0.249981 0.000201
v -0.837310 0.311636 0.000201
v -0.837310 0.249981 0.000201
v -0.898966 0.311636 0.000201
v 0.642415 0.000194 0.348300
v 1.012346 0.000194 0.348300
v 1.012346 0.000194 0.409955
v 0.642415 0.000194 0.409955
v 0.660165 0.030451 0.348300
v 0.642415 0.030451 0.409955
v 1.012346 0.030451 0.409955
v 1.012346 0.030451 0.348300
v -1.453862 0.015323 0.348300
v -1.453862 0.015323 0.420744
v -1.453862 0.030451 0.409956
v -1.453862 0.030451 0.348300
v 0.642415 0.015323 0.420744
v 1.012346 0.015323 0.420744
v 1.258967 0.076978 0.420744
v 1.258967 0.092106 0.409955
v 0.642415 0.015323 0.275856
v 1.012346 0.015323 0.275856
v 1.012346 0.000194 0.286645
v 0.642415 0.000194 0.286645
v 1.258967 0.061850 0.286645
v 1.505587 0.246815 0.348300
v 1.258967 0.061850 0.409955
v 1.258967 0.061850 0.348300
v 1.258967 0.092106 0.348300
v 1.258967 0.092106 0.286645
v 1.012346 0.030451 0.286645
v 1.258967 0.076978 0.275856
v 1.505587 0.277072 0.348300
v 1.505588 0.261943 0.348300
v -0.918407 0.281114 0.114660
v -0.898966 0.250287 0.114813
v 0.580759 0.164305 0.326251
v 0.580759 0.251951 0.256428
v 0.580759 0.203084 0.218832
v 0.580759 0.143218 0.268314
v -0.837310 0.226686 0.166823
v -0.837310 0.250287 0.114813
v -0.837310 0.311942 0.114507
v -0.837310 0.281946 0.185467
v 0.580759 0.311942 0.114506
v 0.580759 0.250287 0.114812
v -0.837310 0.143218 0.268315
v -0.837310 0.203084 0.218833
v -0.837310 0.251951 0.256428
v -0.837310 0.164305 0.326252
v -0.918407 0.153761 0.297283
v -0.918407 0.227518 0.237630
v -0.898966 0.203084 0.218833
v -0.898966 0.143218 0.268315
v 0.580759 0.281946 0.185467
v 0.580759 0.226686 0.166822
v 0.642414 0.281946 0.185467
v 0.642414 0.311942 0.114506
v 0.660164 0.153761 0.297283
v 0.673542 0.227518 0.252872
v 0.642414 0.251951 0.256428
v 0.642414 0.164305 0.326251
v 0.580759 0.092106 0.348300
v 0.580759 0.092106 0.286645
v -0.837310 0.092106 0.286645
v -0.837310 0.092106 0.348300
v -0.898966 0.164305 0.326252
v -0.898966 0.092106 0.348300
v -0.898966 0.092106 0.286645
v 0.642414 0.226686 0.166822
v 0.642414 0.250287 0.114812
v 0.660165 0.092106 0.317472
v 0.642415 0.092106 0.348300
v 0.642414 0.203084 0.218832
v 0.642414 0.143218 0.268314
v -0.918407 0.254316 0.176145
v -0.898966 0.226686 0.166823
v -0.898966 0.030451 0.286645
v -0.837310 0.030451 0.286645
v 0.580759 0.030451 0.286645
v 0.642415 0.092106 0.286645
v 0.642415 0.030451 0.286645
v -0.837310 0.030451 0.409955
v -0.898966 0.030451 0.409955
v -0.918407 0.030451 0.348300
v -0.918407 0.092106 0.317473
v -0.898966 0.251951 0.256428
v -1.453862 0.015323 0.275856
v -0.898966 0.015323 0.275856
v -0.898966 0.000194 0.286645
v -1.453862 0.000194 0.286645
v -0.837310 0.015323 0.275856
v -0.837310 0.000194 0.286645
v 0.580759 0.015323 0.275856
v 0.580759 0.000194 0.286645
v -0.898966 0.015323 0.420744
v -0.837310 0.015323 0.420744
v 0.580759 0.015323 0.420744
v 0.580759 0.030451 0.409955
v -1.453862 0.000194 0.348300
v -0.898966 0.000194 0.348300
v -0.898966 0.000194 0.409955
v -1.453862 0.000194 0.409955
v -0.837310 0.000194 0.348300
v -0.837310 0.000194 0.409955
v 0.580759 0.000194 0.348300
v 0.580759 0.000194 0.409955
v -0.898966 0.311942 0.114507
v -0.898966 0.281946 0.185467
v -0.898966 0.898499 -0.185064
v -0.898966 0.868503 -0.256025
v -0.898965 0.868503 0.256428
v -0.898966 0.898499 0.185467
v 1.051539 0.296784 0.204814
v 1.038234 0.256732 0.164562
v 1.033514 0.242525 0.256449
v 1.024561 0.215574 0.201724
v 1.096745 0.237295 0.164562
v 1.083072 0.214633 0.201724
v 1.083881 0.337167 0.160198
v 1.070576 0.297116 0.119946
v 1.051539 0.296784 -0.204411
v 1.033514 0.242525 -0.256047
v 1.046788 0.229049 0.229087
v 1.046788 0.229049 -0.228684
v 1.038234 0.256732 -0.164159
v 1.024561 0.215574 -0.201322
v -0.837310 0.898499 -0.185064
v -0.837310 0.868503 -0.256025
v -0.880971 0.950553 -0.256025
v -0.898176 0.975123 -0.185064
v -0.837310 0.868503 0.256428
v -0.837310 0.898499 0.185467
v -0.898176 0.975123 0.185467
v -0.880971 0.950553 0.256428
v -0.931476 0.915189 -0.256025
v -0.948681 0.939759 -0.185064
v -0.991640 0.946801 -0.185064
v -0.962476 0.939791 -0.256025
v -0.948681 0.939759 0.185467
v -0.931476 0.915189 0.256428
v -0.962476 0.939791 0.256428
v -0.991640 0.946801 0.185467
v -0.977231 1.006749 -0.185064
v -1.016816 1.006752 -0.195708
v -1.026902 0.964788 -0.195708
v -0.977231 1.006749 0.185467
v -1.026902 0.964788 0.196111
v -1.016816 1.006752 0.196111
v -0.948066 0.999739 0.256428
v -0.948067 0.999739 -0.256025
v -1.006487 0.959881 0.245784
v -0.996401 1.001845 0.245784
v -1.061664 1.004428 0.245784
v -1.060545 0.961284 0.245784
v -0.996401 1.001845 -0.245381
v -1.061664 1.004428 -0.245381
v -1.082653 1.003884 -0.195708
v -1.006487 0.959881 -0.245381
v -1.060545 0.961284 -0.245381
v -1.081535 0.960740 -0.195708
v -1.082653 1.003884 0.196111
v -1.081535 0.960740 0.196111
v 1.105299 0.218860 -0.212518
v 1.092025 0.223088 -0.223714
v 1.110050 0.277347 -0.204411
v 1.121148 0.257321 -0.184285
v 1.105299 0.218860 0.212921
v 1.121148 0.257321 0.184688
v 1.110050 0.277347 0.204814
v 1.092025 0.223088 0.224117
v 1.096745 0.237295 -0.164159
v 1.129088 0.277678 -0.119543
v 1.070576 0.297116 -0.119543
v 1.083072 0.214633 -0.201322
v 1.142393 0.317730 0.160198
v 1.182051 0.364309 0.043123
v 1.123540 0.383746 0.043123
v 1.129088 0.277678 0.119946
v 1.153490 0.297704 0.140072
v 1.083881 0.337167 -0.159795
v 1.105896 0.330632 -0.026519
v 1.123763 0.384417 -0.040277
v 1.142393 0.317730 -0.159795
v 1.153490 0.297704 -0.139669
v 1.191091 0.338087 0.033800
v 1.191091 0.338087 -0.033398
v 1.182274 0.364980 -0.040277
v 1.106119 0.331303 0.024478
v 1.164630 0.311866 0.024478
v 1.164407 0.311195 -0.026519
v -1.453862 0.030451 0.286645
v -1.453862 0.030451 -0.286242
v 0.641786 0.218642 0.162966
v 0.641786 0.195040 0.214976
vt 0.8985 0.0641
vt 0.8403 0.1588
vt 0.9054 0.1800
vt 0.9584 0.1188
vt 0.9073 0.8034
vt 0.9554 0.9019
vt 0.5650 0.9535
vt 0.6184 0.8114
vt 0.5637 0.8066
vt 0.5094 0.8973
vt 0.5654 0.2021
vt 0.5095 0.1129
vt 0.6346 0.2408
vt 0.6347 0.7802
vt 0.6017 0.7723
vt 0.6014 0.2494
vt 0.6123 0.1837
vt 0.5753 0.8582
vt 0.5731 0.1621
vt 0.5100 0.8968
vt 0.5100 0.1122
vt 0.6094 0.8903
vt 0.5645 0.9559
vt 0.8641 0.2429
vt 0.8905 0.1570
vt 0.8926 0.8532
vt 0.8644 0.7658
vt 0.9557 0.1185
vt 0.9557 0.9030
vt 0.8310 0.2350
vt 0.8563 0.1249
vt 0.9012 0.0593
vt 0.5566 0.8239
vt 0.6227 0.6723
vt 0.5380 0.5791
vt 0.4744 0.7376
vt 0.5225 0.6070
vt 0.5171 0.2890
vt 0.4666 0.1528
vt 0.8028 0.0874
vt 0.7803 0.2421
vt 0.8851 0.3105
vt 0.9797 0.1722
vt 0.8827 0.5866
vt 0.9812 0.7368
vt 0.8232 0.6076
vt 0.8213 0.2989
vt 0.8767 0.3153
vt 0.8781 0.5892
vt 0.8398 0.6613
vt 0.9137 0.2107
vt 0.9203 0.6998
vt 0.9791 0.1745
vt 0.9791 0.7360
vt 0.8532 0.1735
vt 0.8976 0.0894
vt 0.5785 0.5976
vt 0.5414 0.7023
vt 0.5349 0.2132
vt 0.5770 0.3238
vt 0.4761 0.7385
vt 0.4761 0.1770
vt 0.6339 0.6141
vt 0.6020 0.7395
vt 0.5576 0.8235
vt 0.5721 0.0589
vt 0.6076 0.1289
vt 0.8936 0.9563
vt 0.8582 0.8863
vt 0.8311 0.7744
vt 0.8572 0.7968
vt 0.8933 0.9544
vt 0.5717 0.0587
vt 0.8995 0.8247
vt 0.8559 0.7352
vt 0.5557 0.0883
vt 0.5993 0.1778
vt 0.6320 0.3054
vt 0.6112 0.2330
vt 0.5777 0.1005
vt 0.8764 0.8170
vt 0.3633 0.6984
vt 0.3832 0.6985
vt 0.3824 0.8180
vt 0.3628 0.8177
vt 0.3623 0.6903
vt 0.3623 0.7947
vt 0.3440 0.7947
vt 0.3440 0.6850
vt 0.3670 0.0896
vt 0.3672 0.0829
vt 0.3925 0.0959
vt 0.3880 0.1016
vt 0.3894 0.6985
vt 0.3956 0.6985
vt 0.3941 0.8195
vt 0.3882 0.8187
vt 0.3897 0.8968
vt 0.3859 0.8940
vt 0.3369 0.6983
vt 0.3430 0.6984
vt 0.3426 0.8179
vt 0.3367 0.8185
vt 0.3428 0.8914
vt 0.3618 0.8912
vt 0.3810 0.8917
vt 0.3613 0.9615
vt 0.3806 0.7947
vt 0.3805 0.8701
vt 0.3623 0.8697
vt 0.3378 0.8936
vt 0.3441 0.8700
vt 0.3622 0.9610
vt 0.3612 0.9814
vt 0.3612 0.9714
vt 0.1891 0.2941
vt 0.1960 0.2818
vt 0.2339 0.3054
vt 0.2264 0.3174
vt 0.3107 0.6325
vt 0.3273 0.6365
vt 0.3284 0.6588
vt 0.3114 0.6636
vt 0.1011 0.2931
vt 0.1214 0.2852
vt 0.1349 0.3107
vt 0.1106 0.3140
vt 0.3314 0.9614
vt 0.3275 0.9433
vt 0.3629 0.9426
vt 0.3629 0.9601
vt 0.0813 0.2415
vt 0.1033 0.2284
vt 0.1168 0.2708
vt 0.0927 0.2727
vt 0.1403 0.2203
vt 0.1548 0.2190
vt 0.1656 0.2481
vt 0.1532 0.2556
vt 0.3089 0.9604
vt 0.3090 0.9420
vt 0.3095 0.9798
vt 0.3311 0.9776
vt 0.2839 0.6323
vt 0.2940 0.6314
vt 0.2931 0.6635
vt 0.2795 0.6586
vt 0.3143 0.6095
vt 0.3306 0.6208
vt 0.0688 0.2193
vt 0.0910 0.1979
vt 0.1207 0.1887
vt 0.1261 0.2219
vt 0.0465 0.2356
vt 0.0582 0.2540
vt 0.3107 0.9980
vt 0.3283 0.9951
vt 0.2829 0.6126
vt 0.2937 0.6086
vt 0.2931 0.6154
vt 0.2721 0.6154
vt 0.2721 0.5888
vt 0.2931 0.5889
vt 0.2826 0.5916
vt 0.2976 0.5813
vt 0.2939 0.6085
vt 0.2831 0.6124
vt 0.1713 0.2751
vt 0.1808 0.2649
vt 0.0303 0.2162
vt 0.0500 0.1998
vt 0.0688 0.2195
vt 0.0467 0.2360
vt 0.3045 0.5010
vt 0.2834 0.5010
vt 0.2835 0.4799
vt 0.3045 0.4800
vt 0.0824 0.1576
vt 0.1065 0.1509
vt 0.1202 0.1885
vt 0.0907 0.1979
vt 0.0706 0.2818
vt 0.1343 0.1587
vt 0.1605 0.1724
vt 0.1524 0.1962
vt 0.1372 0.1921
vt 0.1377 0.1926
vt 0.1529 0.1968
vt 0.0791 0.3023
vt 0.0875 0.3227
vt 0.2931 0.6339
vt 0.2720 0.6339
vt 0.1408 0.2630
vt 0.3452 0.1006
vt 0.3501 0.1027
vt 0.3445 0.2540
vt 0.3383 0.2538
vt 0.3447 0.2749
vt 0.3381 0.2750
vt 0.3440 0.6775
vt 0.3374 0.6773
vt 0.3962 0.2543
vt 0.3905 0.2542
vt 0.3964 0.2751
vt 0.3899 0.2751
vt 0.3958 0.6774
vt 0.3892 0.6774
vt 0.3141 0.1071
vt 0.3159 0.2708
vt 0.2971 0.2730
vt 0.2972 0.1072
vt 0.3150 0.5826
vt 0.3145 0.6093
vt 0.3314 0.2749
vt 0.3308 0.6772
vt 0.2958 0.6772
vt 0.2964 0.2749
vt 0.3417 0.6069
vt 0.3309 0.6206
vt 0.3668 0.0965
vt 0.3829 0.1035
vt 0.3842 0.2542
vt 0.3637 0.2543
vt 0.3833 0.2749
vt 0.3639 0.2744
vt 0.3826 0.6775
vt 0.3633 0.6780
vt 0.3100 0.9232
vt 0.3275 0.9238
vt 0.1452 0.3029
vt 0.1619 0.2853
vt 0.1824 0.3060
vt 0.1673 0.3238
vt 0.3629 0.9785
vt 0.3629 0.9965
vt 0.1436 0.3529
vt 0.1217 0.3579
vt 0.3629 0.9236
vt 0.1000 0.3640
vt 0.2188 0.3294
vt 0.2046 0.3503
vt 0.1077 0.6857
vt 0.1080 0.8046
vt 0.0884 0.8049
vt 0.0878 0.6857
vt 0.1275 0.6881
vt 0.1458 0.6828
vt 0.1458 0.7925
vt 0.1275 0.7925
vt 0.1049 0.0764
vt 0.0838 0.0887
vt 0.0793 0.0829
vt 0.1047 0.0697
vt 0.0815 0.6857
vt 0.0826 0.8057
vt 0.0767 0.8064
vt 0.0753 0.6858
vt 0.0847 0.8806
vt 0.0809 0.8835
vt 0.1341 0.6856
vt 0.1340 0.8055
vt 0.1281 0.8048
vt 0.1279 0.6857
vt 0.1278 0.8781
vt 0.1092 0.9478
vt 0.0898 0.8784
vt 0.1089 0.8779
vt 0.1275 0.8676
vt 0.1093 0.8679
vt 0.1092 0.7925
vt 0.1328 0.8803
vt 0.1457 0.8679
vt 0.1276 0.9589
vt 0.1093 0.9577
vt 0.1093 0.9675
vt 0.2635 0.3394
vt 0.2269 0.3163
vt 0.2344 0.3045
vt 0.2715 0.3280
vt 0.3940 0.6307
vt 0.3918 0.6616
vt 0.3750 0.6560
vt 0.3772 0.6337
vt 0.3020 0.4170
vt 0.2795 0.4176
vt 0.2719 0.3946
vt 0.3004 0.3957
vt 0.3944 0.9614
vt 0.3983 0.9433
vt 0.3563 0.4126
vt 0.3237 0.4158
vt 0.3151 0.3936
vt 0.3585 0.3874
vt 0.3499 0.3512
vt 0.3131 0.3548
vt 0.3144 0.3406
vt 0.3448 0.3377
vt 0.4169 0.9604
vt 0.4168 0.9420
vt 0.4163 0.9798
vt 0.3946 0.9776
vt 0.4204 0.6322
vt 0.4208 0.6575
vt 0.4100 0.6624
vt 0.4106 0.6306
vt 0.3919 0.6075
vt 0.3748 0.6177
vt 0.3814 0.4141
vt 0.3909 0.3853
vt 0.3545 0.3644
vt 0.3863 0.3551
vt 0.3764 0.4409
vt 0.3551 0.4384
vt 0.4151 0.9980
vt 0.3975 0.9951
vt 0.4230 0.6130
vt 0.4126 0.6081
vt 0.3032 0.1049
vt 0.3031 0.1313
vt 0.2822 0.1313
vt 0.2822 0.1049
vt 0.4253 0.5922
vt 0.4110 0.5807
vt 0.2880 0.3471
vt 0.2930 0.3343
vt 0.4008 0.4472
vt 0.3760 0.4411
vt 0.3813 0.4142
vt 0.4070 0.4224
vt 0.3032 0.0655
vt 0.3032 0.0864
vt 0.2822 0.0864
vt 0.2822 0.0655
vt 0.4307 0.3752
vt 0.3911 0.3853
vt 0.3867 0.3548
vt 0.4263 0.3508
vt 0.3251 0.4393
vt 0.4073 0.3293
vt 0.3761 0.3412
vt 0.3659 0.3293
vt 0.3837 0.3118
vt 0.3756 0.3416
vt 0.3653 0.3299
vt 0.3033 0.4405
vt 0.2816 0.4417
vt 0.3117 0.3690
vt 0.1267 0.0877
vt 0.1333 0.2401
vt 0.1271 0.2403
vt 0.1217 0.0897
vt 0.1335 0.2612
vt 0.1269 0.2611
vt 0.1336 0.6647
vt 0.1270 0.6649
vt 0.0811 0.2405
vt 0.0754 0.2405
vt 0.0817 0.2612
vt 0.0751 0.2612
vt 0.0818 0.6647
vt 0.0751 0.6647
vt 0.1470 0.2536
vt 0.1301 0.2538
vt 0.1270 0.0875
vt 0.1459 0.0893
vt 0.3934 0.5807
vt 0.1402 0.2612
vt 0.1753 0.2612
vt 0.1754 0.6647
vt 0.1403 0.6647
vt 0.3648 0.6032
vt 0.1050 0.0834
vt 0.1079 0.2405
vt 0.0875 0.2404
vt 0.0889 0.0904
vt 0.1077 0.2606
vt 0.0883 0.2611
vt 0.1077 0.6654
vt 0.0884 0.6649
vt 0.3983 0.9238
vt 0.4158 0.9232
vt 0.2745 0.3822
vt 0.2465 0.3715
vt 0.2558 0.3504
vt 0.2830 0.3598
vt 0.2357 0.4265
vt 0.2308 0.4049
vt 0.2396 0.4483
vt 0.2070 0.3497
vt 0.2195 0.3281
vt 0.2666 0.6944
vt 0.2859 0.7024
vt 0.2909 0.8959
vt 0.2664 0.8856
vt 0.1442 0.7670
vt 0.1455 0.3484
vt 0.1627 0.3485
vt 0.1612 0.7670
vt 0.2651 0.4219
vt 0.2835 0.4121
vt 0.3016 0.6018
vt 0.2783 0.6146
vt 0.0368 0.7492
vt 0.0369 0.3296
vt 0.0542 0.3296
vt 0.0538 0.7493
vt 0.1780 0.7671
vt 0.1780 0.7851
vt 0.1610 0.7851
vt 0.0369 0.7673
vt 0.0533 0.7677
vt 0.0612 0.8950
vt 0.0409 0.8937
vt 0.1207 0.7853
vt 0.1211 0.7669
vt 0.1447 0.7854
vt 0.1227 0.3483
vt 0.0199 0.7492
vt 0.0199 0.7673
vt 0.0773 0.7677
vt 0.0807 0.8788
vt 0.0770 0.7492
vt 0.0200 0.3296
vt 0.0242 0.8820
vt 0.0226 0.9051
vt 0.0163 0.8951
vt 0.0604 0.9177
vt 0.0423 0.9191
vt 0.1363 0.9124
vt 0.1170 0.8961
vt 0.0852 0.7776
vt 0.0972 0.7690
vt 0.0973 0.8777
vt 0.0883 0.8829
vt 0.1126 0.7984
vt 0.1093 0.9002
vt 0.1565 0.9111
vt 0.1733 0.8994
vt 0.1795 0.3485
vt 0.1029 0.7668
vt 0.1045 0.3482
vt 0.0770 0.3296
vt 0.0952 0.3296
vt 0.0953 0.7492
vt 0.3234 0.6016
vt 0.3445 0.5931
vt 0.3455 0.6206
vt 0.3250 0.6306
vt 0.3132 0.8769
vt 0.3343 0.8856
vt 0.3326 0.9145
vt 0.3121 0.9044
vt 0.3262 0.4190
vt 0.3473 0.4105
vt 0.2464 0.4232
vt 0.2595 0.6100
vt 0.3001 0.4105
vt 0.3194 0.5932
vt 0.3028 0.7019
vt 0.3095 0.8893
vt 0.2481 0.6944
vt 0.2481 0.8789
vt 0.3112 0.6944
vt 0.3323 0.7030
vt 0.2647 0.9053
vt 0.2869 0.9172
vt 0.2824 0.9284
vt 0.2649 0.9174
vt 0.2843 0.6355
vt 0.3054 0.6214
vt 0.3064 0.6335
vt 0.2899 0.6463
vt 0.3227 0.6171
vt 0.2471 0.9028
vt 0.2672 0.6355
vt 0.3040 0.9158
vt 0.2956 0.9356
vt 0.2888 0.9430
vt 0.2794 0.9375
vt 0.2771 0.6544
vt 0.2938 0.6551
vt 0.2850 0.6620
vt 0.3303 0.9396
vt 0.3101 0.9290
vt 0.3473 0.6451
vt 0.3271 0.6557
vt 0.3227 0.6387
vt 0.2492 0.9242
vt 0.3064 0.6479
vt 0.3173 0.6501
vt 0.3114 0.6645
vt 0.3045 0.6593
vt 0.3313 0.6671
vt 0.3455 0.6597
vt 0.3472 0.6789
vt 0.3331 0.6865
vt 0.2664 0.9317
vt 0.3261 0.9510
vt 0.3119 0.9436
vt 0.2559 0.9350
vt 0.2633 0.9486
vt 0.2694 0.9427
vt 0.2740 0.9449
vt 0.2755 0.9547
vt 0.2998 0.6721
vt 0.3002 0.6620
vt 0.3242 0.9704
vt 0.3101 0.9628
vt 0.1075 0.9150
vt 0.1098 0.9118
vt 0.1182 0.9231
vt 0.1100 0.9260
vt 0.0900 0.8978
vt 0.0874 0.9087
vt 0.0793 0.9058
vt 0.0877 0.8946
vt 0.0948 0.8945
vt 0.1750 0.9226
vt 0.1735 0.9419
vt 0.1548 0.9366
vt 0.1812 0.9125
vt 0.0765 0.9236
vt 0.0746 0.9565
vt 0.0585 0.9546
vt 0.0241 0.9241
vt 0.0984 0.9070
vt 0.0941 0.9275
vt 0.0837 0.9272
vt 0.1370 0.9353
vt 0.1568 0.9699
vt 0.1406 0.9747
vt 0.1208 0.9412
vt 0.1134 0.9448
vt 0.0818 0.9582
vt 0.0832 0.9766
vt 0.0748 0.9791
vt 0.0414 0.9553
vt 0.0216 0.9560
vt 0.0924 0.9583
vt 0.0405 0.9717
vt 0.0215 0.9716
vt 0.1749 0.9732
vt 0.1220 0.9791
vt 0.1134 0.9791
vt 0.0561 0.9776
vt 0.1403 0.6856
vt 0.1397 0.2399
vt 0.1308 0.0816
vt 0.1367 0.8832
vt 0.1399 0.8062
vt 0.3307 0.6983
vt 0.3320 0.2536
vt 0.3410 0.0946
vt 0.3340 0.8964
vt 0.3309 0.8192
vt 0.1640 0.2536
vt 0.1654 0.0872
vt 0.3310 0.1068
vt 0.3353 0.2727
vt 0.1027 0.9446
vt 0.1024 0.9757
vt 0.0942 0.9734
vt 0.0990 0.9240
vt 0.1004 0.8949
vt 0.1027 0.9117
vt 0.1014 0.7868
vt 0.4412 0.6019
vt 0.4325 0.6177
vt 0.4307 0.6332
vt 0.4356 0.6550
vt 0.1092 0.6828
vt 0.2661 0.5998
vt 0.2733 0.6162
vt 0.2731 0.6163
vt 0.2732 0.6319
vt 0.2649 0.6524
vt 0.3806 0.6850
vt 0.0199 0.7673
vt 0.0369 0.7673
vn 0.8157 0.4754 0.3295
vn 0.2167 0.9534 0.2099
vn 0.1003 0.7367 0.6687
vn 0.3862 0.4110 0.8258
vn -0.1003 0.7367 0.6687
vn -0.3862 0.4110 0.8258
vn -0.8157 0.4754 -0.3295
vn -0.2167 0.9534 -0.2099
vn -0.1003 0.7367 -0.6687
vn -0.3862 0.4110 -0.8258
vn 0.1003 0.7367 -0.6687
vn 0.3862 0.4110 -0.8258
vn 0.1117 -0.9766 -0.1840
vn -0.1117 -0.9766 -0.1840
vn -0.0388 -0.8787 -0.4757
vn 0.0388 -0.8787 -0.4757
vn 0.2167 0.9534 -0.2099
vn -0.3351 -0.5021 -0.7972
vn 0.3351 -0.5021 -0.7972
vn -0.7685 -0.5484 -0.3296
vn 0.0388 -0.8787 0.4757
vn 0.3351 -0.5021 0.7972
vn -0.3351 -0.5021 0.7972
vn -0.0388 -0.8787 0.4757
vn 0.1117 -0.9766 0.1840
vn 0.7685 -0.5484 0.3296
vn 0.8435 0.5040 0.1856
vn 0.2342 0.9648 0.1194
vn 0.1190 0.7898 0.6018
vn 0.5284 0.4120 0.7423
vn -0.1190 0.7898 0.6018
vn -0.5284 0.4120 0.7423
vn -0.8435 0.5040 -0.1856
vn -0.2342 0.9648 -0.1194
vn -0.1190 0.7898 -0.6018
vn -0.5284 0.4120 -0.7423
vn 0.1190 0.7898 -0.6018
vn 0.5284 0.4120 -0.7423
vn 0.1302 -0.9868 -0.0967
vn -0.1302 -0.9868 -0.0967
vn -0.0584 -0.8727 -0.4848
vn 0.0584 -0.8727 -0.4848
vn 0.2342 0.9648 -0.1194
vn -0.4949 -0.4790 -0.7250
vn 0.4949 -0.4790 -0.7250
vn -0.7901 -0.5852 -0.1825
vn 0.0584 -0.8727 0.4848
vn 0.4949 -0.4790 0.7250
vn -0.4949 -0.4790 0.7250
vn -0.0584 -0.8727 0.4848
vn 0.1302 -0.9868 0.0967
vn 0.7901 -0.5852 0.1824
vn 0.8157 0.4754 -0.3295
vn 0.7685 -0.5484 -0.3296
vn -0.8157 0.4754 0.3295
vn -0.7685 -0.5484 0.3296
vn -0.1117 -0.9766 0.1840
vn -0.2167 0.9534 0.2099
vn 0.8435 0.5040 -0.1856
vn 0.7901 -0.5852 -0.1824
vn -0.8435 0.5040 0.1856
vn -0.7901 -0.5852 0.1825
vn -0.1302 -0.9868 0.0967
vn -0.2342 0.9648 0.1194
vn -0.0000 -1.0000 -0.0000
vn -0.0000 -0.8850 -0.4655
vn 0.1069 -0.8867 -0.4499
vn 0.1222 -0.9925 -0.0000
vn 0.5694 0.8200 -0.0587
vn -0.1222 0.9925 0.0000
vn -0.1101 0.8708 -0.4792
vn 0.1242 0.7351 -0.6664
vn -1.0000 -0.0000 0.0000
vn -0.7071 0.7071 0.0000
vn -0.6158 0.6973 -0.3667
vn -0.5991 0.0000 -0.8007
vn 0.0000 0.0000 -1.0000
vn 0.0109 -0.0438 -0.9990
vn -0.2541 0.7625 -0.5950
vn 0.1597 -0.0075 -0.9871
vn 0.0000 0.0000 1.0000
vn -0.0000 -0.8850 0.4655
vn 0.1069 -0.8867 0.4499
vn 0.0109 -0.0438 0.9990
vn 0.3920 -0.7824 0.4839
vn 0.4298 -0.9029 -0.0000
vn 0.3920 -0.7824 -0.4839
vn 0.8102 -0.5861 0.0000
vn -0.1101 0.8708 0.4792
vn -0.2541 0.7625 0.5950
vn -0.4298 0.9029 0.0000
vn 0.1597 -0.0075 0.9871
vn -0.2240 0.9746 0.0000
vn 0.7172 0.6968 0.0000
vn -0.9973 0.0683 -0.0276
vn -0.5085 -0.8402 0.1885
vn -0.4827 -0.8758 -0.0000
vn -1.0000 -0.0009 0.0000
vn -0.6673 0.3469 -0.6590
vn -0.7480 -0.3283 0.5768
vn -0.3390 -0.9100 0.2387
vn -0.2716 0.5959 -0.7558
vn 0.2763 -0.7120 0.6456
vn 0.6836 0.6420 0.3471
vn 0.6647 0.7324 -0.1474
vn 0.7583 -0.6374 0.1370
vn -0.6647 0.7324 -0.1474
vn -0.7583 -0.6374 0.1370
vn -0.7065 -0.7077 0.0000
vn -0.7077 0.7065 0.0000
vn 0.7480 -0.3283 0.5768
vn 0.6673 0.3469 -0.6590
vn 0.4557 0.2676 -0.8489
vn 0.3390 -0.9100 0.2387
vn -0.9981 0.0334 -0.0522
vn -0.5027 -0.4292 0.7504
vn -0.5114 -0.6828 0.5217
vn -0.9967 0.0654 -0.0484
vn -0.3210 0.9447 -0.0676
vn -0.2763 -0.7120 0.6456
vn 0.3005 0.9442 -0.1347
vn 0.6648 0.7324 -0.1474
vn 0.9932 0.0036 -0.1162
vn 0.4020 0.4111 -0.8182
vn 0.1374 0.6926 -0.7082
vn 0.3879 -0.6509 -0.6526
vn -0.7659 0.3311 -0.5512
vn -0.7478 -0.1137 0.6541
vn 0.7478 -0.1137 0.6541
vn 0.7659 0.3311 -0.5512
vn -0.5410 0.4237 -0.7265
vn -0.4575 0.4122 -0.7879
vn -0.5366 -0.1803 0.8244
vn 0.2945 -0.6619 0.6893
vn 0.9994 0.0352 0.0052
vn 0.5594 0.4181 -0.7157
vn 0.4769 -0.4621 0.7476
vn 0.2054 -0.8366 0.5079
vn -1.0000 0.0012 0.0042
vn -0.4711 -0.8043 0.3622
vn -0.2503 0.5026 0.8275
vn 0.2821 0.6019 0.7471
vn -0.2821 0.6019 0.7471
vn 0.2543 0.5101 0.8217
vn 0.5536 -0.1765 0.8139
vn 0.1343 0.7628 -0.6325
vn -0.1228 0.7327 -0.6693
vn -0.5556 0.8292 -0.0616
vn -0.9992 0.0386 0.0066
vn -0.6293 0.3900 -0.6723
vn -0.5991 0.0000 0.8007
vn -0.6158 -0.6973 0.3668
vn 0.0000 -0.8851 0.4655
vn -0.1343 0.7628 -0.6325
vn -0.7071 -0.7071 0.0000
vn -0.6158 -0.6973 -0.3668
vn 0.0000 -0.8851 -0.4655
vn -0.8312 0.5538 0.0491
vn -0.4567 0.8731 -0.1706
vn 0.7077 0.7065 0.0000
vn 0.7065 -0.7077 0.0000
vn -0.4833 0.8754 0.0000
vn 0.1073 -0.8902 0.4427
vn 0.0000 -0.8890 0.4579
vn 0.5694 0.8200 0.0587
vn 0.1240 0.7410 0.6600
vn -0.1106 0.8751 0.4711
vn -0.5968 0.0000 0.8024
vn -0.6171 0.6995 0.3603
vn 0.0112 -0.0448 0.9989
vn 0.1609 -0.0076 0.9869
vn -0.2573 0.7669 0.5879
vn 0.0112 -0.0448 -0.9989
vn 0.1073 -0.8902 -0.4427
vn 0.0000 -0.8890 -0.4579
vn 0.3933 -0.7856 -0.4777
vn 0.8067 -0.5910 0.0000
vn 0.3933 -0.7856 0.4777
vn -0.2573 0.7669 -0.5879
vn -0.1106 0.8751 -0.4711
vn 0.1609 -0.0076 -0.9869
vn -0.2347 0.9721 0.0000
vn 0.6948 0.7192 0.0000
vn -0.9973 0.0683 0.0276
vn -0.5085 -0.8402 -0.1885
vn -0.6673 0.3469 0.6590
vn -0.2716 0.5959 0.7558
vn -0.3390 -0.9100 -0.2387
vn -0.7480 -0.3283 -0.5768
vn 0.2763 -0.7120 -0.6456
vn 0.7583 -0.6374 -0.1370
vn 0.6647 0.7324 0.1474
vn 0.6836 0.6420 -0.3471
vn -0.6648 0.7324 0.1474
vn -0.7583 -0.6374 -0.1370
vn 0.7480 -0.3283 -0.5768
vn 0.3390 -0.9100 -0.2387
vn 0.4557 0.2676 0.8489
vn 0.6673 0.3469 0.6590
vn -0.9981 0.0334 0.0522
vn -0.9967 0.0654 0.0484
vn -0.5114 -0.6828 -0.5217
vn -0.5027 -0.4292 -0.7504
vn -0.3210 0.9447 0.0676
vn -0.2763 -0.7120 -0.6456
vn 0.3005 0.9442 0.1347
vn 0.9946 0.0227 0.1010
vn 0.4775 -0.5829 0.6574
vn 0.1376 0.6839 0.7165
vn 0.4175 0.4107 0.8106
vn -0.7659 0.3311 0.5512
vn -0.7478 -0.1138 -0.6541
vn 0.7478 -0.1137 -0.6541
vn 0.7659 0.3311 0.5512
vn -0.4575 0.4122 0.7879
vn -0.5410 0.4237 0.7265
vn -0.5366 -0.1803 -0.8244
vn 0.2945 -0.6619 -0.6893
vn 0.9994 0.0352 -0.0052
vn 0.5594 0.4181 0.7157
vn 0.2221 -0.8447 -0.4870
vn 0.5057 -0.4382 -0.7431
vn -1.0000 0.0012 -0.0042
vn -0.4711 -0.8043 -0.3622
vn -0.2504 0.5105 -0.8226
vn 0.2820 0.6094 -0.7411
vn -0.2820 0.6094 -0.7411
vn 0.5536 -0.1765 -0.8139
vn 0.2544 0.5180 -0.8167
vn 0.1340 0.7685 0.6257
vn -0.1225 0.7386 0.6629
vn -0.5556 0.8292 0.0616
vn -0.9992 0.0386 -0.0066
vn -0.6293 0.3900 0.6723
vn -0.5968 0.0000 -0.8024
vn -0.6171 -0.6995 -0.3603
vn -0.1340 0.7685 0.6257
vn -0.6171 -0.6995 0.3603
vn -0.4567 0.8731 0.1706
vn -0.8312 0.5538 -0.0491
vn -0.4828 -0.2385 0.8426
vn -0.6194 -0.1810 -0.7639
vn -0.6194 -0.1810 0.7639
vn -0.4828 -0.2385 -0.8426
vn -0.1327 0.9206 0.3673
vn -0.3431 -0.2580 -0.9032
vn 0.1077 0.0578 0.9925
vn -0.0085 -0.9955 -0.0941
vn 0.2397 -0.7851 -0.5711
vn 0.1359 -0.9809 -0.1390
vn -0.3894 0.8532 0.3470
vn -0.8249 -0.1708 -0.5388
vn -0.1327 0.9206 -0.3673
vn 0.1073 0.0403 -0.9934
vn -0.0276 -0.8697 0.4929
vn -0.0284 -0.8720 -0.4886
vn -0.3431 -0.2580 0.9032
vn -0.0088 -0.9960 0.0890
vn 0.7395 0.2784 0.6129
vn 0.7213 0.1613 -0.6736
vn 0.5197 0.4983 -0.6940
vn 0.4924 0.5996 0.6308
vn 0.7213 0.1613 0.6736
vn 0.7395 0.2784 -0.6129
vn 0.4924 0.5996 -0.6308
vn 0.5197 0.4983 0.6940
vn -0.4391 -0.5628 -0.7003
vn -0.3167 -0.5000 0.8061
vn -0.3832 -0.6258 0.6794
vn -0.3315 -0.5796 -0.7444
vn -0.3167 -0.5000 -0.8061
vn -0.4391 -0.5628 0.7003
vn -0.3315 -0.5796 0.7444
vn -0.3832 -0.6258 -0.6794
vn 0.0689 0.7408 0.6682
vn -0.0966 0.7764 0.6228
vn -0.2135 -0.6421 0.7363
vn 0.0689 0.7408 -0.6682
vn -0.2135 -0.6421 -0.7363
vn -0.0966 0.7764 -0.6228
vn 0.1717 0.7023 0.6908
vn 0.1717 0.7023 -0.6908
vn -0.2619 -0.6206 0.7391
vn -0.0676 0.7159 0.6949
vn -0.4436 0.5903 0.6743
vn -0.4316 -0.6185 0.6567
vn -0.0676 0.7159 -0.6949
vn -0.4436 0.5903 -0.6743
vn -0.7040 0.5501 0.4492
vn -0.2619 -0.6206 -0.7391
vn -0.4316 -0.6185 -0.6567
vn -0.6747 -0.5743 0.4637
vn -0.7040 0.5501 -0.4492
vn -0.6747 -0.5743 -0.4637
vn 0.7161 -0.6322 -0.2958
vn 0.3557 -0.4771 -0.8037
vn 0.5700 0.3196 -0.7569
vn 0.8812 -0.4184 -0.2200
vn 0.7161 -0.6322 0.2958
vn 0.8812 -0.4184 0.2200
vn 0.5700 0.3196 0.7569
vn 0.3556 -0.4771 0.8037
vn 0.2397 -0.7851 0.5711
vn 0.2930 -0.8852 0.3614
vn -0.8238 -0.1725 0.5400
vn 0.1359 -0.9809 0.1389
vn 0.6428 0.4649 0.6088
vn 0.7076 0.6624 0.2460
vn -0.3517 0.9277 0.1254
vn 0.2929 -0.8855 -0.3606
vn 0.9132 -0.3291 0.2402
vn -0.3898 0.8534 -0.3460
vn -0.9012 -0.3709 0.2241
vn -0.3527 0.9280 -0.1204
vn 0.6421 0.4673 -0.6077
vn 0.9144 -0.3247 -0.2418
vn 0.9722 -0.2095 0.1048
vn 0.9720 -0.2081 -0.1089
vn 0.7059 0.6690 -0.2328
vn -0.9062 -0.3677 -0.2088
vn 0.2944 -0.9499 -0.1046
vn 0.2936 -0.9491 0.1143
vn -0.6171 0.6995 -0.3603
vn -0.6158 0.6973 0.3667
vn 0.9975 -0.0640 -0.0290
usemtl Material.001
s 1
f 1/1/1 2/2/2 3/3/3 4/4/4
f 4/4/4 3/3/3 5/5/5 6/6/6
f 7/7/7 8/8/8 9/9/9 10/10/10
f 10/10/10 9/9/9 11/11/11 12/12/12
f 13/13/13 14/14/14 15/15/15 16/16/16
f 8/8/8 17/17/17 11/11/11 9/9/9
f 15/15/15 18/18/18 19/19/19 16/16/16
f 18/18/18 10/20/10 12/21/12 19/19/19
f 14/14/14 20/22/20 18/18/18 15/15/15
f 20/22/20 7/23/7 10/20/10 18/18/18
f 21/24/21 22/25/22 23/26/23 24/27/24
f 22/25/22 4/28/4 6/29/6 23/26/23
f 25/30/25 26/31/26 22/25/22 21/24/21
f 26/31/26 1/32/1 4/28/4 22/25/22
f 27/33/27 28/34/28 29/35/29 30/36/30
f 30/36/30 29/37/29 31/38/31 32/39/32
f 33/40/33 34/41/34 35/42/35 36/43/36
f 36/43/36 35/42/35 37/44/37 38/45/38
f 39/46/39 40/47/40 41/48/41 42/49/42
f 34/41/34 43/50/43 37/44/37 35/42/35
f 41/48/41 44/51/44 45/52/45 42/49/42
f 44/51/44 36/53/36 38/54/38 45/52/45
f 40/47/40 46/55/46 44/51/44 41/48/41
f 46/55/46 33/56/33 36/53/36 44/51/44
f 47/57/47 48/58/48 49/59/49 50/60/50
f 48/58/48 30/61/30 32/62/32 49/59/49
f 51/63/51 52/64/52 48/58/48 47/57/47
f 52/64/52 27/65/27 30/61/30 48/58/48
f 19/19/19 12/21/12 53/66/53 54/67/54
f 54/67/54 53/66/53 1/32/1 26/31/26
f 16/16/16 19/19/19 54/67/54 13/13/13
f 13/13/13 54/67/54 26/31/26 25/30/25
f 23/26/23 6/29/6 55/68/55 56/69/56
f 56/69/56 55/68/55 7/23/7 20/22/20
f 24/27/24 23/26/23 56/69/56 57/70/57
f 57/70/57 56/69/56 20/22/20 14/14/14
f 5/5/5 3/3/3 2/2/2 58/71/58
f 58/71/58 2/2/2 17/17/17 8/8/8
f 21/24/21 24/27/24 57/70/57 25/30/25
f 25/30/25 57/70/57 14/14/14 13/13/13
f 6/6/6 5/5/5 58/71/58 55/72/55
f 55/72/55 58/71/58 8/8/8 7/7/7
f 12/12/12 11/11/11 17/17/17 53/73/53
f 53/73/53 17/17/17 2/2/2 1/1/1
f 45/52/45 38/54/38 59/74/59 60/75/60
f 60/75/60 59/74/59 27/65/27 52/64/52
f 42/49/42 45/52/45 60/75/60 39/46/39
f 39/46/39 60/75/60 52/64/52 51/63/51
f 49/59/49 32/62/32 61/76/61 62/77/62
f 62/77/62 61/76/61 33/56/33 46/55/46
f 50/60/50 49/59/49 62/77/62 63/78/63
f 63/78/63 62/77/62 46/55/46 40/47/40
f 31/38/31 29/37/29 28/34/28 64/79/64
f 64/79/64 28/34/28 43/50/43 34/41/34
f 47/57/47 50/60/50 63/78/63 51/63/51
f 51/63/51 63/78/63 40/47/40 39/46/39
f 32/39/32 31/38/31 64/79/64 61/80/61
f 61/80/61 64/79/64 34/41/34 33/40/33
f 38/45/38 37/44/37 43/50/43 59/81/59
f 59/81/59 43/50/43 28/34/28 27/33/27
f 65/82/65 66/83/66 67/84/67 68/85/68
f 69/86/69 70/87/70 71/88/71 72/89/72
f 73/90/73 74/91/74 75/92/75 76/93/76
f 77/94/77 72/95/72 71/96/71 78/97/78
f 78/97/78 71/96/71 79/98/79 80/99/80
f 81/100/81 82/101/82 83/102/83 84/103/84
f 85/104/85 86/105/86 87/106/87 88/107/88
f 70/87/70 89/108/89 90/109/90 91/110/91
f 84/103/84 83/102/83 85/104/85 92/111/92
f 68/85/68 67/84/67 87/106/87 86/105/86
f 79/112/79 91/110/91 90/109/90 93/113/93
f 80/99/80 79/98/79 93/114/93 94/115/94
f 92/111/92 85/104/85 88/107/88 94/115/94
f 95/116/95 96/117/96 97/118/97 98/119/98
f 99/120/99 100/121/100 101/122/101 102/123/102
f 103/124/103 104/125/104 105/126/105 106/127/106
f 107/128/107 108/129/108 109/130/109 110/131/110
f 111/132/111 112/133/112 113/134/113 114/135/114
f 115/136/115 116/137/116 117/138/117 118/139/118
f 119/140/119 120/141/120 108/129/108 107/128/107
f 121/142/121 119/140/119 107/128/107 122/143/122
f 123/144/123 124/145/124 125/146/125 126/147/126
f 124/145/124 99/120/99 102/123/102 125/146/125
f 127/148/127 128/149/128 100/121/100 99/120/99
f 129/150/129 130/151/130 112/133/112 111/132/111
f 130/151/130 131/152/131 132/153/132 112/133/112
f 133/154/133 129/150/129 111/132/111 116/155/116
f 134/156/134 121/142/121 122/143/122 135/157/106
f 136/158/135 137/159/136 124/145/124 123/144/123
f 100/160/100 138/161/137 139/162/138 101/163/101
f 69/164/69 72/165/72 137/166/136 136/167/135
f 140/168/139 141/169/140 96/117/96 95/116/95
f 142/170/141 143/171/142 129/172/129 133/173/133
f 144/174/143 145/175/144 146/176/145 128/177/128
f 147/178/146 148/179/147 131/180/131 130/181/130
f 116/155/116 111/132/111 114/135/114 117/182/117
f 149/183/148 142/184/141 133/185/133 150/186/149
f 137/159/136 127/148/127 99/120/99 124/145/124
f 150/187/149 133/188/133 116/137/116 115/136/115
f 141/189/140 103/124/103 106/127/106 96/190/96
f 128/191/128 146/192/145 138/161/137 100/160/100
f 112/133/112 132/153/132 151/193/150 113/134/113
f 143/171/142 147/178/146 130/181/130 129/172/129
f 152/194/151 153/195/152 154/196/153 155/197/81
f 155/197/81 154/196/153 156/198/82 157/199/81
f 157/199/81 156/198/82 158/200/82 159/201/81
f 159/201/81 158/200/82 82/101/82 81/100/81
f 76/93/76 75/92/75 148/202/147 160/203/77
f 160/203/77 148/202/147 147/204/146 161/205/77
f 161/205/77 147/204/146 162/206/154 163/207/77
f 163/207/77 162/206/154 72/95/72 77/94/77
f 74/208/74 149/209/148 148/210/147 75/211/75
f 72/165/72 162/212/154 127/213/127 137/166/136
f 143/214/142 144/215/143 162/216/154 147/217/146
f 162/212/154 144/218/143 128/219/128 127/213/127
f 164/220/155 165/221/156 166/222/157 167/223/65
f 167/223/65 166/222/157 168/224/66 169/225/65
f 169/225/65 168/224/66 170/226/66 171/227/65
f 171/227/65 170/226/66 66/83/66 65/82/65
f 120/141/120 134/228/134 135/229/106 108/129/108
f 104/230/104 172/231/158 173/232/159 105/233/105
f 135/157/106 122/143/122 174/234/160 175/235/161
f 106/127/106 105/126/105 176/236/160 177/237/161
f 122/143/122 107/128/107 110/131/110 174/234/160
f 108/129/108 135/229/106 175/238/161 109/130/109
f 96/190/96 106/127/106 177/237/161 97/239/97
f 105/233/105 173/232/159 178/240/162 176/241/160
f 179/242/65 180/243/68 181/244/163 182/245/164
f 183/246/165 184/247/166 185/248/167 186/249/70
f 187/250/73 188/251/168 189/252/169 190/253/74
f 191/254/81 192/255/170 185/256/167 184/257/166
f 192/255/170 193/258/171 194/259/172 185/256/167
f 195/260/77 196/261/173 197/262/174 198/263/175
f 199/264/176 200/265/177 201/266/178 202/267/86
f 186/249/70 203/268/91 204/269/179 205/270/180
f 196/261/173 206/271/181 199/264/176 197/262/174
f 180/243/68 202/267/86 201/266/178 181/244/163
f 194/272/172 207/273/182 204/269/179 203/268/91
f 193/258/171 208/274/183 207/275/182 194/259/172
f 206/271/181 208/274/183 200/265/177 199/264/176
f 209/276/184 98/277/98 97/278/97 210/279/185
f 211/280/186 212/281/187 213/282/188 214/283/189
f 215/284/190 216/285/191 217/286/192 218/287/193
f 219/288/194 110/131/110 109/130/109 220/289/195
f 221/290/196 222/291/197 223/292/198 224/293/199
f 225/294/200 226/295/201 227/296/202 228/297/203
f 229/298/204 219/288/194 220/289/195 230/299/205
f 231/300/206 232/301/192 219/288/194 229/298/204
f 233/302/207 234/303/208 235/304/209 236/305/210
f 236/305/210 235/304/209 212/281/187 211/280/186
f 237/306/211 211/280/186 214/283/189 238/307/212
f 239/308/213 221/290/196 224/293/199 240/309/214
f 240/309/214 224/293/199 241/310/215 242/311/216
f 243/312/217 228/313/203 221/290/196 239/308/213
f 244/314/218 245/315/191 232/301/192 231/300/206
f 246/316/219 233/302/207 236/305/210 247/317/220
f 214/318/189 213/319/188 248/320/221 249/321/222
f 183/322/165 246/316/219 247/317/220 184/323/166
f 250/324/223 209/276/184 210/279/185 251/325/224
f 252/326/225 243/327/217 239/328/213 253/329/226
f 254/330/227 238/331/212 255/332/228 256/333/229
f 257/334/230 240/335/214 242/336/216 258/337/231
f 228/313/203 227/338/202 222/291/197 221/290/196
f 259/339/232 260/340/233 243/341/217 252/342/225
f 247/317/220 236/305/210 211/280/186 237/306/211
f 260/343/233 225/294/200 228/297/203 243/344/217
f 251/345/224 210/346/185 216/285/191 215/284/190
f 238/331/212 214/318/189 249/321/222 255/332/228
f 224/293/199 223/292/198 261/347/234 241/310/215
f 253/329/226 239/328/213 240/335/214 257/334/230
f 262/348/235 263/349/77 264/350/175 265/351/236
f 263/349/77 266/352/77 267/353/175 264/350/175
f 266/352/77 268/354/77 269/355/175 267/353/175
f 268/354/77 195/260/77 198/263/175 269/355/175
f 188/251/168 270/356/81 258/357/231 189/252/169
f 270/356/81 271/358/81 257/359/230 258/357/231
f 271/358/81 272/360/81 273/361/237 257/359/230
f 272/360/81 191/254/81 184/257/166 273/361/237
f 190/362/74 189/363/169 258/364/231 259/365/232
f 184/323/166 247/317/220 237/306/211 273/366/237
f 253/367/226 257/368/230 273/369/237 254/370/227
f 273/366/237 237/306/211 238/307/212 254/371/227
f 274/372/155 275/373/65 276/374/164 277/375/238
f 275/373/65 278/376/65 279/377/164 276/374/164
f 278/376/65 280/378/65 281/379/164 279/377/164
f 280/378/65 179/242/65 182/245/164 281/379/164
f 230/299/205 220/289/195 245/380/191 244/381/218
f 218/382/193 217/383/192 282/384/239 283/385/240
f 245/315/191 175/235/161 174/234/160 232/301/192
f 216/285/191 177/386/161 176/387/160 217/286/192
f 232/301/192 174/234/160 110/131/110 219/288/194
f 220/289/195 109/130/109 175/238/161 245/380/191
f 210/346/185 97/388/97 177/386/161 216/285/191
f 217/383/192 176/389/160 178/390/162 282/384/239
f 151/391/150 172/392/158 284/393/241 285/394/242
f 117/182/117 114/135/114 103/124/103 141/189/140
f 118/139/118 117/138/117 141/169/140 140/168/139
f 119/395/119 104/396/104 103/397/103 120/398/120
f 283/399/240 261/400/234 286/401/243 287/402/244
f 227/338/202 251/345/224 215/284/190 222/291/197
f 226/295/201 250/324/223 251/325/224 227/296/202
f 230/403/205 215/404/190 218/405/193 229/406/204
f 101/407/101 139/408/138 134/409/134 120/398/120
f 244/410/218 231/411/206 288/412/245 289/413/246
f 125/414/125 102/415/102 119/395/119 121/416/121
f 102/415/102 113/417/113 104/396/104 119/395/119
f 213/418/188 230/403/205 244/410/218 248/419/221
f 231/411/206 235/420/209 290/421/247 288/412/245
f 235/420/209 231/411/206 229/406/204 212/422/187
f 213/418/188 222/423/197 215/404/190 230/403/205
f 291/424/248 289/413/246 292/425/249 293/426/250
f 289/413/246 288/412/245 294/427/251 295/428/252
f 125/414/125 121/416/121 296/429/253 297/430/254
f 234/431/208 248/432/221 291/433/248 298/434/255
f 126/435/126 125/414/125 297/430/254 299/436/256
f 121/416/121 134/409/134 300/437/257 296/429/253
f 248/419/221 244/410/218 289/413/246 291/424/248
f 134/409/134 139/408/138 301/438/258 300/437/257
f 120/398/120 103/397/103 114/439/114 101/407/101
f 101/440/101 114/441/114 113/417/113 102/415/102
f 229/406/204 218/405/193 223/442/198 212/422/187
f 212/422/187 223/442/198 222/443/197 213/444/188
f 302/445/259 303/446/260 304/447/261 305/448/262
f 306/449/263 307/450/264 308/451/265 309/452/266
f 104/453/104 113/454/113 303/446/260 302/445/259
f 218/455/193 283/399/240 287/402/244 307/456/264
f 261/400/234 223/457/198 306/458/263 286/401/243
f 172/392/158 104/459/104 302/460/259 284/393/241
f 113/461/113 151/391/150 285/394/242 303/462/260
f 223/463/198 218/464/193 307/450/264 306/449/263
f 310/465/267 311/466/268 312/467/269 313/468/270
f 314/469/271 315/470/272 316/471/273 317/472/274
f 286/401/243 306/458/263 309/473/266 315/470/272
f 303/462/260 285/394/242 310/465/267 304/474/261
f 307/456/264 287/402/244 314/469/271 308/475/265
f 284/393/241 302/460/259 305/476/262 311/466/268
f 287/402/244 286/401/243 315/470/272 314/469/271
f 285/394/242 284/393/241 311/466/268 310/465/267
f 312/467/269 318/477/275 319/478/276 320/479/277
f 321/480/278 317/472/274 322/481/279 323/482/280
f 309/452/266 308/451/265 321/483/278 324/484/281
f 305/448/262 304/447/261 325/485/282 318/486/275
f 315/470/272 309/473/266 324/487/281 316/471/273
f 304/474/261 310/465/267 313/468/270 325/488/282
f 308/475/265 314/469/271 317/472/274 321/480/278
f 311/466/268 305/476/262 318/477/275 312/467/269
f 326/489/283 327/490/284 328/491/285 329/492/286
f 319/493/276 330/494/287 331/495/288 332/496/289
f 317/472/274 316/471/273 326/489/283 322/481/279
f 313/468/270 312/467/269 320/479/277 333/497/290
f 324/484/281 321/483/278 323/498/280 327/499/284
f 318/486/275 325/485/282 330/494/287 319/493/276
f 316/471/273 324/487/281 327/490/284 326/489/283
f 325/488/282 313/468/270 333/497/290 330/500/287
f 331/501/288 334/502/291 335/503/292 332/504/289
f 328/491/285 336/505/293 337/506/294 329/492/286
f 330/500/287 333/497/290 334/502/291 331/501/288
f 323/482/280 322/481/279 337/506/294 336/505/293
f 320/479/277 319/478/276 332/504/289 335/503/292
f 322/481/279 326/489/283 329/492/286 337/506/294
f 333/497/290 320/479/277 335/503/292 334/502/291
f 327/499/284 323/498/280 336/507/293 328/508/285
f 338/509/295 339/510/296 340/511/297 341/512/298
f 342/513/299 343/514/300 344/515/301 345/516/302
f 298/434/255 291/433/248 293/517/250 342/513/299
f 297/430/254 296/429/253 340/511/297 339/510/296
f 300/437/257 346/518/303 347/519/304 348/520/305
f 288/412/245 290/421/247 345/516/302 344/515/301
f 300/437/257 301/438/258 349/521/306 346/518/303
f 299/436/256 297/430/254 339/510/296 338/509/295
f 294/427/251 350/522/307 351/523/308 352/524/309
f 292/425/249 289/413/246 295/428/252 353/525/310
f 343/514/300 292/526/249 353/527/310 354/528/311
f 288/412/245 344/515/301 350/522/307 294/427/251
f 355/529/312 348/520/305 356/530/313 357/531/314
f 296/429/253 300/437/257 348/520/305 355/529/312
f 340/511/297 296/429/253 355/529/312 358/532/315
f 341/512/298 340/511/297 358/532/315 359/533/316
f 360/534/317 361/535/318 362/536/319 351/523/308
f 295/428/252 294/427/251 352/524/309 363/537/320
f 353/525/310 295/428/252 363/537/320 364/538/321
f 354/528/311 353/527/310 364/539/321 360/534/317
f 363/537/320 356/540/313 365/541/322 364/538/321
f 348/520/305 347/519/304 365/542/322 356/530/313
f 359/533/316 358/532/315 362/543/319 361/544/318
f 358/532/315 355/529/312 357/531/314 362/543/319
f 351/523/308 362/536/319 357/545/314 352/524/309
f 352/524/309 357/545/314 356/540/313 363/537/320
f 281/379/164 182/245/164 191/254/81 272/360/81
f 279/377/164 281/379/164 272/360/81 271/358/81
f 276/374/164 279/377/164 271/358/81 270/356/81
f 277/375/238 276/374/164 270/356/81 188/251/168
f 254/370/227 256/546/229 195/260/77 268/354/77
f 253/367/226 254/370/227 268/354/77 266/352/77
f 252/547/225 253/367/226 266/352/77 263/349/77
f 366/548/323 252/547/225 263/349/77 262/348/235
f 204/549/179 207/275/182 208/274/183 206/271/181
f 201/266/178 200/265/177 208/274/183 193/258/171
f 205/550/180 204/549/179 206/271/181 196/261/173
f 256/546/229 205/550/180 196/261/173 195/260/77
f 181/244/163 201/266/178 193/258/171 192/255/170
f 182/245/164 181/244/163 192/255/170 191/254/81
f 274/372/155 277/375/238 188/251/168 187/250/73
f 170/226/66 163/207/77 77/94/77 66/83/66
f 168/224/66 161/205/77 163/207/77 170/226/66
f 166/222/157 160/203/77 161/205/77 168/224/66
f 165/221/156 76/93/76 160/203/77 166/222/157
f 144/215/143 159/201/81 81/100/81 145/551/144
f 143/214/142 157/199/81 159/201/81 144/215/143
f 142/552/141 155/197/81 157/199/81 143/214/142
f 367/553/324 152/194/151 155/197/81 142/552/141
f 90/554/90 92/111/92 94/115/94 93/114/93
f 87/106/87 80/99/80 94/115/94 88/107/88
f 89/555/89 84/103/84 92/111/92 90/554/90
f 145/551/144 81/100/81 84/103/84 89/555/89
f 67/84/67 78/97/78 80/99/80 87/106/87
f 66/83/66 77/94/77 78/97/78 67/84/67
f 164/220/155 73/90/73 76/93/76 165/221/156
f 153/195/152 152/194/151 73/90/73 164/220/155
f 265/351/236 274/372/155 187/250/73 262/348/235
f 261/347/234 283/385/240 250/324/223 226/295/201
f 151/193/150 118/139/118 140/168/139 172/231/158
f 269/355/175 198/263/175 179/242/65 280/378/65
f 267/353/175 269/355/175 280/378/65 278/376/65
f 264/350/175 267/353/175 278/376/65 275/373/65
f 265/351/236 264/350/175 275/373/65 274/372/155
f 366/556/323 190/362/74 259/365/232 252/557/225
f 242/311/216 241/310/215 225/294/200 260/343/233
f 258/337/231 242/336/216 260/340/233 259/339/232
f 283/385/240 282/384/239 209/276/184 250/324/223
f 241/310/215 261/347/234 226/295/201 225/294/200
f 282/384/239 178/390/162 98/277/98 209/276/184
f 197/262/174 199/264/176 202/267/86 180/243/68
f 262/348/235 187/250/73 190/253/74 366/548/323
f 198/263/175 197/262/174 180/243/68 179/242/65
f 158/200/82 171/227/65 65/82/65 82/101/82
f 156/198/82 169/225/65 171/227/65 158/200/82
f 154/196/153 167/223/65 169/225/65 156/198/82
f 153/195/152 164/220/155 167/223/65 154/196/153
f 367/558/324 142/559/141 149/209/148 74/208/74
f 131/152/131 150/187/149 115/136/115 132/153/132
f 148/179/147 149/183/148 150/186/149 131/180/131
f 172/231/158 140/168/139 95/116/95 173/232/159
f 132/153/132 115/136/115 118/139/118 151/193/150
f 173/232/159 95/116/95 98/119/98 178/240/162
f 83/102/83 68/85/68 86/105/86 85/104/85
f 152/194/151 367/553/324 74/91/74 73/90/73
f 82/101/82 65/82/65 68/85/68 83/102/83
f 347/560/304 359/533/316 361/544/318 365/561/322
f 350/522/307 354/528/311 360/534/317 351/523/308
f 364/539/321 365/562/322 361/535/318 360/534/317
f 346/563/303 341/512/298 359/533/316 347/560/304
f 344/515/301 343/514/300 354/528/311 350/522/307
f 301/564/258 299/436/256 338/509/295 349/565/306
f 290/421/247 298/434/255 342/513/299 345/516/302
f 293/517/250 292/526/249 343/514/300 342/513/299
f 349/565/306 338/509/295 341/512/298 346/563/303
f 139/566/138 126/435/126 299/436/256 301/564/258
f 235/420/209 234/431/208 298/434/255 290/421/247
f 256/567/229 255/568/228 246/316/219 183/322/165
f 255/568/228 249/569/222 233/302/207 246/316/219
f 249/569/222 248/570/221 234/303/208 233/302/207
f 185/248/167 194/272/172 203/268/91 186/249/70
f 256/571/229 183/246/165 186/249/70 205/270/180
f 145/572/144 69/164/69 136/167/135 146/573/145
f 146/574/145 136/158/135 123/144/123 138/575/137
f 138/575/137 123/144/123 126/147/126 139/576/138
f 71/88/71 70/87/70 91/110/91 79/112/79
f 145/577/144 89/108/89 70/87/70 69/86/69
f 244/410/325 248/419/325 369/578/325 368/579/325
